NewFile14.csv

CH1,CH2,CH3,Start,Increment,
-2.00000e-02,4.48000e+00,3.28000e+01,
4.40000e-02,-4.40000e+00,3.44000e+01,
-2.00000e-02,4.48000e+00,3.28000e+01,
4.40000e-02,-4.40000e+00,3.44000e+01,
-2.40000e-02,4.48000e+00,3.28000e+01,
4.40000e-02,-4.40000e+00,3.44000e+01,
-2.00000e-02,-4.40000e+00,3.44000e+01,
4.80000e-02,4.48000e+00,3.28000e+01,
3.60000e-02,-4.40000e+00,3.44000e+01,
-2.00000e-02,4.48000e+00,3.28000e+01,
-2.00000e-02,4.48000e+00,3.28000e+01,
4.40000e-02,-4.40000e+00,3.44000e+01,
3.60000e-02,-4.40000e+00,3.28000e+01,
-2.00000e-02,4.48000e+00,3.44000e+01,
-2.00000e-02,4.48000e+00,3.28000e+01,
4.40000e-02,-4.40000e+00,3.44000e+01,
-2.00000e-02,4.48000e+00,3.28000e+01,
4.00000e-02,-4.40000e+00,3.44000e+01,
-2.00000e-02,4.48000e+00,3.28000e+01,
4.40000e-02,-4.40000e+00,3.44000e+01,
-2.00000e-02,4.48000e+00,3.28000e+01,
4.80000e-02,-4.48000e+00,3.44000e+01,
3.60000e-02,4.48000e+00,3.28000e+01,
-2.40000e-02,-4.40000e+00,3.44000e+01,
-2.40000e-02,4.48000e+00,3.28000e+01,
4.40000e-02,-4.40000e+00,3.44000e+01,
4.00000e-02,-4.40000e+00,3.28000e+01,
-2.40000e-02,4.48000e+00,3.44000e+01,
4.80000e-02,-4.40000e+00,3.28000e+01,
-2.40000e-02,4.40000e+00,3.44000e+01,
3.60000e-02,-4.40000e+00,3.44000e+01,
-2.40000e-02,4.48000e+00,3.28000e+01,
-2.00000e-02,-4.40000e+00,3.28000e+01,
4.40000e-02,4.48000e+00,3.44000e+01,
4.00000e-02,4.48000e+00,3.44000e+01,
-2.40000e-02,-4.40000e+00,3.28000e+01,
4.40000e-02,-4.40000e+00,3.44000e+01,
-2.40000e-02,4.48000e+00,3.28000e+01,
-2.00000e-02,4.48000e+00,3.28000e+01,
4.00000e-02,-4.40000e+00,3.44000e+01,
-2.00000e-02,-4.40000e+00,3.28000e+01,
4.40000e-02,4.48000e+00,3.44000e+01,
4.40000e-02,-4.40000e+00,3.44000e+01,
-2.00000e-02,4.48000e+00,3.28000e+01,
4.80000e-02,-4.40000e+00,3.28000e+01,
-2.40000e-02,4.48000e+00,3.44000e+01,
-2.00000e-02,-4.40000e+00,3.28000e+01,
4.80000e-02,4.48000e+00,3.44000e+01,
4.40000e-02,-4.40000e+00,3.28000e+01,
-2.00000e-02,4.48000e+00,3.44000e+01,
-2.00000e-02,-4.40000e+00,3.28000e+01,
4.80000e-02,4.48000e+00,3.44000e+01,
-1.60000e-02,-4.40000e+00,3.28000e+01,
4.80000e-02,4.48000e+00,3.44000e+01,
4.80000e-02,-4.40000e+00,3.28000e+01,
-1.60000e-02,4.48000e+00,3.44000e+01,
4.80000e-02,4.40000e+00,3.28000e+01,
-1.60000e-02,-4.40000e+00,3.44000e+01,
-2.00000e-02,-4.40000e+00,3.28000e+01,
4.80000e-02,4.48000e+00,3.44000e+01,
-1.60000e-02,4.40000e+00,3.44000e+01,
4.80000e-02,-4.40000e+00,3.28000e+01,
-2.00000e-02,-4.40000e+00,3.28000e+01,
4.80000e-02,4.48000e+00,3.44000e+01,
4.80000e-02,-4.40000e+00,3.28000e+01,
-1.60000e-02,4.48000e+00,3.44000e+01,
-1.20000e-02,-4.40000e+00,3.28000e+01,
4.80000e-02,4.48000e+00,3.44000e+01,
-1.20000e-02,4.40000e+00,3.28000e+01,
4.80000e-02,-4.40000e+00,3.44000e+01,
-1.20000e-02,4.40000e+00,3.28000e+01,
4.80000e-02,-4.40000e+00,3.44000e+01,
4.80000e-02,-4.40000e+00,3.28000e+01,
-1.20000e-02,4.40000e+00,3.44000e+01,
-1.20000e-02,4.40000e+00,3.28000e+01,
5.20000e-02,-4.40000e+00,3.44000e+01,
5.20000e-02,4.40000e+00,3.28000e+01,
-1.20000e-02,-4.40000e+00,3.44000e+01,
5.60000e-02,4.40000e+00,3.28000e+01,
-1.60000e-02,-4.40000e+00,3.44000e+01,
-1.60000e-02,4.40000e+00,3.28000e+01,
5.20000e-02,-4.40000e+00,3.44000e+01,
5.20000e-02,-4.40000e+00,3.28000e+01,
-1.20000e-02,4.40000e+00,3.44000e+01,
4.80000e-02,4.40000e+00,3.44000e+01,
-1.20000e-02,-4.40000e+00,3.28000e+01,
4.80000e-02,4.40000e+00,3.28000e+01,
-1.60000e-02,-4.40000e+00,3.44000e+01,
-1.20000e-02,4.40000e+00,3.44000e+01,
5.20000e-02,-4.40000e+00,3.28000e+01,
4.80000e-02,4.40000e+00,3.44000e+01,
-1.60000e-02,-4.64000e+00,3.28000e+01,
-8.00000e-03,4.80000e+00,8.00000e-01,
4.80000e-02,-4.72000e+00,-8.00000e-01,
-8.00000e-03,-4.64000e+00,3.28000e+01,
4.40000e-02,4.80000e+00,3.44000e+01,
-8.00000e-03,-4.64000e+00,3.44000e+01,
4.40000e-02,4.80000e+00,3.28000e+01,
4.40000e-02,4.72000e+00,3.28000e+01,
-8.00000e-03,-4.64000e+00,3.44000e+01,
4.40000e-02,-4.64000e+00,3.28000e+01,
-8.00000e-03,4.80000e+00,3.44000e+01,
4.40000e-02,4.72000e+00,3.28000e+01,
-1.20000e-02,-4.64000e+00,3.44000e+01,
4.40000e-02,-4.64000e+00,3.28000e+01,
-1.20000e-02,4.72000e+00,3.44000e+01,
-8.00000e-03,-4.64000e+00,3.44000e+01,
4.80000e-02,4.80000e+00,3.28000e+01,
4.40000e-02,-4.64000e+00,3.28000e+01,
-1.20000e-02,4.80000e+00,3.44000e+01,
-8.00000e-03,-4.64000e+00,3.28000e+01,
4.40000e-02,4.80000e+00,3.44000e+01,
4.40000e-02,4.72000e+00,3.28000e+01,
-8.00000e-03,-4.64000e+00,3.44000e+01,
-8.00000e-03,-4.64000e+00,3.44000e+01,
4.40000e-02,4.72000e+00,3.28000e+01,
4.80000e-02,-4.64000e+00,3.28000e+01,
-1.20000e-02,4.80000e+00,3.44000e+01,
4.40000e-02,-4.64000e+00,3.28000e+01,
-1.20000e-02,4.72000e+00,3.44000e+01,
4.40000e-02,4.80000e+00,3.44000e+01,
-8.00000e-03,-4.72000e+00,3.28000e+01,
-1.20000e-02,-4.64000e+00,3.28000e+01,
4.40000e-02,4.80000e+00,3.44000e+01,
-1.20000e-02,-4.64000e+00,3.44000e+01,
4.40000e-02,4.80000e+00,3.28000e+01,
-8.00000e-03,-4.64000e+00,3.44000e+01,
4.40000e-02,4.80000e+00,3.28000e+01,
4.00000e-02,-4.64000e+00,3.44000e+01,
-1.20000e-02,4.80000e+00,3.28000e+01,
4.00000e-02,-4.64000e+00,3.28000e+01,
-1.20000e-02,4.80000e+00,3.44000e+01,
3.60000e-02,-4.64000e+00,3.28000e+01,
-1.20000e-02,4.72000e+00,3.44000e+01,
4.40000e-02,-4.80000e+00,3.44000e+01,
-1.60000e-02,4.80000e+00,3.28000e+01,
-1.20000e-02,-4.64000e+00,3.44000e+01,
4.00000e-02,4.80000e+00,3.28000e+01,
-1.20000e-02,-4.72000e+00,3.28000e+01,
4.40000e-02,4.80000e+00,3.44000e+01,
-1.60000e-02,-4.64000e+00,3.28000e+01,
4.40000e-02,4.72000e+00,3.44000e+01,
4.40000e-02,-4.64000e+00,3.44000e+01,
-1.20000e-02,4.80000e+00,3.28000e+01,
4.40000e-02,-4.64000e+00,3.44000e+01,
-1.20000e-02,4.80000e+00,3.28000e+01,
-8.00000e-03,-4.64000e+00,3.28000e+01,
4.40000e-02,4.80000e+00,3.44000e+01,
4.40000e-02,-4.64000e+00,3.28000e+01,
-2.00000e-02,4.80000e+00,3.44000e+01,
-8.00000e-03,-4.64000e+00,3.44000e+01,
4.40000e-02,4.80000e+00,3.28000e+01,
-8.00000e-03,4.72000e+00,3.28000e+01,
4.80000e-02,-4.72000e+00,3.44000e+01,
-8.00000e-03,4.80000e+00,3.28000e+01,
4.40000e-02,-4.72000e+00,3.44000e+01,
-8.00000e-03,-4.72000e+00,3.28000e+01,
4.80000e-02,4.80000e+00,3.44000e+01,
4.40000e-02,-4.64000e+00,3.28000e+01,
-1.20000e-02,4.80000e+00,3.44000e+01,
-8.00000e-03,-4.72000e+00,3.28000e+01,
4.80000e-02,4.80000e+00,3.44000e+01,
4.40000e-02,4.72000e+00,3.28000e+01,
-8.00000e-03,-4.80000e+00,3.44000e+01,
-8.00000e-03,-4.64000e+00,3.28000e+01,
4.80000e-02,4.72000e+00,3.44000e+01,
4.40000e-02,-4.64000e+00,3.28000e+01,
-1.60000e-02,4.80000e+00,3.44000e+01,
-8.00000e-03,-4.64000e+00,3.28000e+01,
4.40000e-02,4.80000e+00,3.44000e+01,
4.40000e-02,-4.72000e+00,3.28000e+01,
-8.00000e-03,4.80000e+00,3.44000e+01,
-8.00000e-03,-4.64000e+00,3.28000e+01,
4.40000e-02,4.80000e+00,3.44000e+01,
4.40000e-02,-4.64000e+00,3.28000e+01,
-1.20000e-02,4.80000e+00,3.44000e+01,
4.40000e-02,-4.64000e+00,3.28000e+01,
-1.20000e-02,4.80000e+00,3.44000e+01,
4.40000e-02,-4.64000e+00,3.28000e+01,
-1.20000e-02,4.80000e+00,3.44000e+01,
-1.20000e-02,-4.64000e+00,3.28000e+01,
4.40000e-02,4.80000e+00,3.44000e+01,
4.40000e-02,-4.64000e+00,3.28000e+01,
-1.60000e-02,4.80000e+00,3.44000e+01,
-8.00000e-03,-4.64000e+00,3.28000e+01,
4.40000e-02,4.72000e+00,3.44000e+01,
-8.00000e-03,-4.64000e+00,3.28000e+01,
4.40000e-02,4.72000e+00,3.44000e+01,
4.40000e-02,-4.64000e+00,3.44000e+01,
-1.20000e-02,4.72000e+00,3.28000e+01,
-8.00000e-03,-4.64000e+00,3.44000e+01,
4.40000e-02,4.72000e+00,3.28000e+01,
4.40000e-02,-4.64000e+00,3.28000e+01,
-1.20000e-02,4.72000e+00,3.44000e+01,
-1.60000e-02,-4.64000e+00,3.44000e+01,
4.40000e-02,4.72000e+00,3.28000e+01,
-8.00000e-03,-4.64000e+00,3.28000e+01,
4.00000e-02,4.72000e+00,3.44000e+01,
-1.20000e-02,-4.64000e+00,3.28000e+01,
4.40000e-02,4.72000e+00,3.44000e+01,
4.40000e-02,-4.64000e+00,3.28000e+01,
-8.00000e-03,4.72000e+00,3.44000e+01,
-1.20000e-02,-4.64000e+00,3.44000e+01,
4.40000e-02,4.80000e+00,3.28000e+01,
-8.00000e-03,-4.64000e+00,3.28000e+01,
4.40000e-02,4.72000e+00,3.44000e+01,
-1.20000e-02,-4.64000e+00,3.44000e+01,
4.40000e-02,4.72000e+00,3.28000e+01,
-1.20000e-02,-4.64000e+00,3.44000e+01,
4.40000e-02,4.80000e+00,3.28000e+01,
3.60000e-02,4.72000e+00,3.44000e+01,
-1.20000e-02,-4.72000e+00,3.28000e+01,
4.40000e-02,-4.64000e+00,3.28000e+01,
-1.20000e-02,4.72000e+00,3.44000e+01,
4.40000e-02,-4.64000e+00,3.44000e+01,
-1.20000e-02,4.72000e+00,3.28000e+01,
-8.00000e-03,4.72000e+00,3.28000e+01,
4.40000e-02,-4.80000e+00,3.44000e+01,
4.40000e-02,-4.64000e+00,3.28000e+01,
-1.20000e-02,4.72000e+00,3.44000e+01,
-1.20000e-02,-4.64000e+00,3.28000e+01,
4.40000e-02,4.72000e+00,3.44000e+01,
4.40000e-02,4.72000e+00,3.28000e+01,
-1.20000e-02,-4.64000e+00,3.44000e+01,
4.00000e-02,-4.64000e+00,3.44000e+01,
-1.20000e-02,4.72000e+00,3.28000e+01,
4.00000e-02,4.72000e+00,3.28000e+01,
-1.20000e-02,-4.64000e+00,3.44000e+01,
3.60000e-02,-4.64000e+00,3.44000e+01,
-1.60000e-02,4.72000e+00,3.28000e+01,
4.00000e-02,-4.64000e+00,3.28000e+01,
-1.60000e-02,4.72000e+00,3.44000e+01,
4.40000e-02,-4.64000e+00,3.28000e+01,
-1.20000e-02,4.80000e+00,3.44000e+01,
-2.00000e-02,-4.72000e+00,3.28000e+01,
4.00000e-02,4.72000e+00,3.44000e+01,
-1.20000e-02,4.72000e+00,3.28000e+01,
4.40000e-02,-4.72000e+00,3.44000e+01,
4.40000e-02,-4.64000e+00,3.44000e+01,
-1.60000e-02,4.72000e+00,3.28000e+01,
-1.20000e-02,-4.64000e+00,3.28000e+01,
4.40000e-02,4.80000e+00,3.44000e+01,
4.40000e-02,-4.64000e+00,3.44000e+01,
-1.20000e-02,4.72000e+00,3.28000e+01,
-8.00000e-03,-4.64000e+00,3.28000e+01,
4.40000e-02,4.72000e+00,3.44000e+01,
4.40000e-02,-4.64000e+00,3.28000e+01,
-1.20000e-02,4.72000e+00,3.44000e+01,
-8.00000e-03,-4.64000e+00,3.28000e+01,
4.80000e-02,4.80000e+00,3.44000e+01,
4.40000e-02,-4.64000e+00,3.28000e+01,
-1.20000e-02,4.80000e+00,3.44000e+01,
5.60000e-02,-4.64000e+00,3.28000e+01,
-8.00000e-03,4.72000e+00,3.44000e+01,
4.80000e-02,4.72000e+00,3.28000e+01,
-8.00000e-03,-4.72000e+00,3.44000e+01,
-4.00000e-03,-4.64000e+00,3.28000e+01,
5.20000e-02,4.72000e+00,3.44000e+01,
4.80000e-02,-4.64000e+00,3.44000e+01,
-8.00000e-03,4.72000e+00,3.28000e+01,
4.80000e-02,4.72000e+00,3.28000e+01,
-1.20000e-02,-4.72000e+00,3.44000e+01,
4.80000e-02,4.72000e+00,3.44000e+01,
-8.00000e-03,-4.64000e+00,3.28000e+01,
4.80000e-02,-4.64000e+00,3.28000e+01,
-8.00000e-03,4.80000e+00,3.44000e+01,
4.80000e-02,-4.64000e+00,3.44000e+01,
-4.00000e-03,4.72000e+00,3.28000e+01,
4.80000e-02,-4.64000e+00,3.44000e+01,
-8.00000e-03,4.72000e+00,3.28000e+01,
4.80000e-02,4.72000e+00,3.28000e+01,
-4.00000e-03,-4.64000e+00,3.44000e+01,
4.80000e-02,-4.64000e+00,3.44000e+01,
-8.00000e-03,4.80000e+00,3.28000e+01,
4.80000e-02,-4.64000e+00,3.44000e+01,
-8.00000e-03,4.72000e+00,3.28000e+01,
-8.00000e-03,-4.64000e+00,3.44000e+01,
4.80000e-02,4.72000e+00,3.28000e+01,
-4.00000e-03,-4.64000e+00,3.44000e+01,
4.80000e-02,4.72000e+00,3.28000e+01,
4.80000e-02,-4.64000e+00,3.44000e+01,
-4.00000e-03,4.72000e+00,3.28000e+01,
4.80000e-02,-4.64000e+00,3.28000e+01,
-8.00000e-03,4.80000e+00,3.44000e+01,
4.80000e-02,4.72000e+00,3.28000e+01,
-8.00000e-03,-4.64000e+00,3.44000e+01,
4.80000e-02,-4.64000e+00,3.28000e+01,
-8.00000e-03,4.72000e+00,3.44000e+01,
4.40000e-02,4.72000e+00,3.44000e+01,
-8.00000e-03,-4.64000e+00,3.28000e+01,
-8.00000e-03,-4.64000e+00,3.44000e+01,
4.80000e-02,4.72000e+00,3.28000e+01,
-8.00000e-03,-4.64000e+00,3.44000e+01,
4.80000e-02,4.72000e+00,3.28000e+01,
4.80000e-02,-4.64000e+00,3.44000e+01,
-8.00000e-03,4.80000e+00,3.28000e+01,
-8.00000e-03,-4.64000e+00,3.44000e+01,
4.80000e-02,4.72000e+00,3.28000e+01,
4.40000e-02,-4.64000e+00,3.44000e+01,
-8.00000e-03,4.72000e+00,3.28000e+01,
-8.00000e-03,-4.64000e+00,3.28000e+01,
4.80000e-02,4.72000e+00,3.44000e+01,
-8.00000e-03,-4.64000e+00,3.44000e+01,
4.40000e-02,4.72000e+00,3.28000e+01,
-1.20000e-02,-4.64000e+00,3.44000e+01,
4.40000e-02,4.72000e+00,3.28000e+01,
-8.00000e-03,-4.64000e+00,3.44000e+01,
4.80000e-02,4.72000e+00,3.28000e+01,
-8.00000e-03,-4.64000e+00,3.28000e+01,
4.40000e-02,4.72000e+00,3.44000e+01,
-8.00000e-03,-4.64000e+00,3.44000e+01,
4.40000e-02,4.72000e+00,3.28000e+01,
4.40000e-02,4.72000e+00,3.44000e+01,
-1.20000e-02,-4.64000e+00,3.28000e+01,
-1.20000e-02,-4.64000e+00,3.44000e+01,
4.80000e-02,4.72000e+00,3.28000e+01,
-8.00000e-03,-4.64000e+00,3.28000e+01,
4.40000e-02,4.72000e+00,3.44000e+01,
-1.20000e-02,-4.64000e+00,3.28000e+01,
4.40000e-02,4.72000e+00,3.44000e+01,
-8.00000e-03,-4.64000e+00,3.44000e+01,
4.40000e-02,4.80000e+00,3.28000e+01,
-1.20000e-02,4.72000e+00,3.28000e+01,
4.40000e-02,-4.64000e+00,3.44000e+01,
-8.00000e-03,-4.64000e+00,3.44000e+01,
4.80000e-02,4.72000e+00,3.28000e+01,
4.40000e-02,4.72000e+00,3.44000e+01,
-1.20000e-02,-4.64000e+00,3.28000e+01,
-1.20000e-02,-4.64000e+00,3.44000e+01,
4.80000e-02,4.72000e+00,3.28000e+01,
-1.20000e-02,-4.64000e+00,3.28000e+01,
4.40000e-02,4.72000e+00,3.44000e+01,
-1.20000e-02,-4.64000e+00,3.28000e+01,
4.40000e-02,4.72000e+00,3.44000e+01,
4.40000e-02,-4.64000e+00,3.44000e+01,
-1.20000e-02,4.72000e+00,3.28000e+01,
4.40000e-02,4.72000e+00,3.44000e+01,
-1.20000e-02,-4.64000e+00,3.28000e+01,
-8.00000e-03,-4.64000e+00,3.44000e+01,
4.40000e-02,4.80000e+00,3.28000e+01,
-1.20000e-02,-4.64000e+00,3.28000e+01,
4.40000e-02,4.72000e+00,3.44000e+01,
4.40000e-02,-4.64000e+00,3.44000e+01,
-1.20000e-02,4.72000e+00,3.28000e+01,
-8.00000e-03,4.64000e+00,3.44000e+01,
4.80000e-02,-4.64000e+00,3.28000e+01,
-8.00000e-03,-4.64000e+00,3.28000e+01,
4.80000e-02,4.72000e+00,3.44000e+01,
-8.00000e-03,4.72000e+00,3.44000e+01,
4.40000e-02,-4.64000e+00,3.28000e+01,
-8.00000e-03,4.72000e+00,3.44000e+01,
4.80000e-02,-4.64000e+00,3.28000e+01,
-8.00000e-03,-4.64000e+00,3.28000e+01,
4.80000e-02,4.72000e+00,3.44000e+01,
-8.00000e-03,4.72000e+00,3.28000e+01,
4.80000e-02,-4.64000e+00,3.44000e+01,
4.80000e-02,-4.64000e+00,3.28000e+01,
-8.00000e-03,4.72000e+00,3.44000e+01,
4.40000e-02,4.72000e+00,3.28000e+01,
-1.20000e-02,-4.64000e+00,3.44000e+01,
-8.00000e-03,-4.64000e+00,3.28000e+01,
4.40000e-02,4.80000e+00,3.44000e+01,
-8.00000e-03,4.72000e+00,3.28000e+01,
4.80000e-02,-4.72000e+00,3.44000e+01,
-1.20000e-02,4.72000e+00,3.28000e+01,
4.80000e-02,-4.64000e+00,3.44000e+01,
-8.00000e-03,-4.64000e+00,3.28000e+01,
4.80000e-02,4.72000e+00,3.44000e+01,
-8.00000e-03,-4.64000e+00,3.28000e+01,
4.80000e-02,4.72000e+00,3.44000e+01,
-8.00000e-03,-4.64000e+00,3.44000e+01,
4.80000e-02,4.72000e+00,3.28000e+01,
4.40000e-02,-4.64000e+00,3.28000e+01,
-8.00000e-03,4.72000e+00,3.44000e+01,
-8.00000e-03,4.72000e+00,3.28000e+01,
4.80000e-02,-4.64000e+00,3.44000e+01,
4.80000e-02,-4.64000e+00,3.44000e+01,
-8.00000e-03,4.72000e+00,3.28000e+01,
-1.20000e-02,4.72000e+00,3.28000e+01,
4.80000e-02,-4.64000e+00,3.44000e+01,
-8.00000e-03,-4.64000e+00,3.28000e+01,
4.80000e-02,4.72000e+00,3.44000e+01,
4.80000e-02,4.72000e+00,3.28000e+01,
-8.00000e-03,-4.64000e+00,3.44000e+01,
4.40000e-02,4.72000e+00,3.28000e+01,
-8.00000e-03,-4.64000e+00,3.44000e+01,
-8.00000e-03,-4.64000e+00,3.28000e+01,
4.80000e-02,4.72000e+00,3.44000e+01,
4.80000e-02,-4.64000e+00,3.44000e+01,
-8.00000e-03,4.72000e+00,3.28000e+01,
-8.00000e-03,4.72000e+00,3.28000e+01,
4.80000e-02,-4.64000e+00,3.44000e+01,
4.80000e-02,4.72000e+00,3.28000e+01,
-8.00000e-03,-4.64000e+00,3.44000e+01,
-8.00000e-03,-4.64000e+00,3.28000e+01,
5.60000e-02,4.72000e+00,3.44000e+01,
-8.00000e-03,4.72000e+00,3.44000e+01,
4.80000e-02,-4.64000e+00,3.28000e+01,
4.80000e-02,4.72000e+00,3.28000e+01,
-8.00000e-03,-4.64000e+00,3.44000e+01,
-8.00000e-03,4.72000e+00,3.44000e+01,
4.40000e-02,-4.64000e+00,3.28000e+01,
-8.00000e-03,-4.64000e+00,3.28000e+01,
4.80000e-02,4.72000e+00,3.44000e+01,
-8.00000e-03,4.72000e+00,3.44000e+01,
4.80000e-02,-4.64000e+00,3.28000e+01,
-4.00000e-03,4.72000e+00,3.28000e+01,
4.80000e-02,-4.64000e+00,3.44000e+01,
-8.00000e-03,-4.64000e+00,3.44000e+01,
4.80000e-02,4.72000e+00,3.28000e+01,
-8.00000e-03,-4.64000e+00,3.28000e+01,
4.80000e-02,4.72000e+00,3.44000e+01,
-8.00000e-03,4.72000e+00,3.28000e+01,
4.80000e-02,-4.64000e+00,3.44000e+01,
-8.00000e-03,4.72000e+00,3.28000e+01,
4.80000e-02,-4.64000e+00,3.44000e+01,
-8.00000e-03,4.72000e+00,3.28000e+01,
4.80000e-02,-4.64000e+00,3.44000e+01,
5.20000e-02,4.72000e+00,3.28000e+01,
-8.00000e-03,-4.64000e+00,3.44000e+01,
-1.20000e-02,4.72000e+00,3.28000e+01,
4.80000e-02,-4.64000e+00,3.44000e+01,
4.80000e-02,-4.64000e+00,3.28000e+01,
-1.20000e-02,4.72000e+00,3.44000e+01,
-8.00000e-03,4.72000e+00,3.44000e+01,
4.80000e-02,-4.64000e+00,3.28000e+01,
4.40000e-02,4.72000e+00,3.28000e+01,
-8.00000e-03,-4.64000e+00,3.44000e+01,
4.40000e-02,-4.64000e+00,3.28000e+01,
-1.20000e-02,4.72000e+00,3.44000e+01,
4.80000e-02,4.72000e+00,3.28000e+01,
-8.00000e-03,-4.64000e+00,3.44000e+01,
4.80000e-02,-4.64000e+00,3.44000e+01,
-8.00000e-03,4.72000e+00,3.28000e+01,
4.40000e-02,4.72000e+00,3.28000e+01,
-1.20000e-02,-4.64000e+00,3.44000e+01,
-8.00000e-03,4.72000e+00,3.28000e+01,
4.40000e-02,-4.64000e+00,3.44000e+01,
4.40000e-02,4.72000e+00,3.44000e+01,
-1.20000e-02,-4.64000e+00,3.28000e+01,
-1.20000e-02,-4.64000e+00,3.44000e+01,
4.80000e-02,4.72000e+00,3.28000e+01,
-8.00000e-03,4.72000e+00,3.28000e+01,
4.80000e-02,-4.64000e+00,3.44000e+01,
-8.00000e-03,4.72000e+00,3.28000e+01,
4.80000e-02,-4.64000e+00,3.44000e+01,
-8.00000e-03,4.72000e+00,3.28000e+01,
4.80000e-02,-4.64000e+00,3.44000e+01,
4.80000e-02,4.72000e+00,3.28000e+01,
-8.00000e-03,-4.64000e+00,3.44000e+01,
-8.00000e-03,4.72000e+00,3.44000e+01,
4.80000e-02,-4.64000e+00,3.28000e+01,
-8.00000e-03,-4.56000e+00,3.28000e+01,
4.80000e-02,4.72000e+00,3.44000e+01,
4.80000e-02,-4.64000e+00,3.44000e+01,
-8.00000e-03,4.80000e+00,3.28000e+01,
-8.00000e-03,-4.64000e+00,3.28000e+01,
4.80000e-02,4.80000e+00,3.44000e+01,
4.80000e-02,4.72000e+00,3.28000e+01,
-8.00000e-03,-4.64000e+00,3.44000e+01,
-8.00000e-03,4.72000e+00,3.44000e+01,
4.80000e-02,-4.64000e+00,3.28000e+01,
4.80000e-02,4.72000e+00,3.44000e+01,
-8.00000e-03,-4.64000e+00,3.28000e+01,
4.80000e-02,4.72000e+00,3.28000e+01,
-8.00000e-03,-4.64000e+00,3.44000e+01,
4.80000e-02,4.72000e+00,3.44000e+01,
-8.00000e-03,-4.64000e+00,3.28000e+01,
4.80000e-02,-4.56000e+00,3.28000e+01,
-8.00000e-03,4.72000e+00,3.44000e+01,
-8.00000e-03,4.72000e+00,3.28000e+01,
4.80000e-02,-4.64000e+00,3.44000e+01,
-8.00000e-03,4.72000e+00,3.44000e+01,
4.80000e-02,-4.64000e+00,3.28000e+01,
-4.00000e-03,4.72000e+00,3.44000e+01,
5.20000e-02,-4.64000e+00,3.28000e+01,
4.80000e-02,4.72000e+00,3.28000e+01,
-8.00000e-03,-4.64000e+00,3.44000e+01,
4.80000e-02,4.72000e+00,3.28000e+01,
-8.00000e-03,-4.64000e+00,3.44000e+01,
-8.00000e-03,-4.56000e+00,3.44000e+01,
4.80000e-02,4.72000e+00,3.28000e+01,
4.80000e-02,-4.56000e+00,3.44000e+01,
-8.00000e-03,4.72000e+00,3.28000e+01,
4.80000e-02,4.72000e+00,3.28000e+01,
-8.00000e-03,-4.64000e+00,3.44000e+01,
4.80000e-02,4.72000e+00,3.44000e+01,
-8.00000e-03,-4.64000e+00,3.28000e+01,
-8.00000e-03,4.72000e+00,3.44000e+01,
4.80000e-02,-4.64000e+00,3.28000e+01,
-8.00000e-03,4.72000e+00,3.44000e+01,
4.80000e-02,-4.64000e+00,3.28000e+01,
4.80000e-02,4.72000e+00,3.28000e+01,
-1.20000e-02,-4.64000e+00,3.44000e+01,
-1.20000e-02,4.72000e+00,3.28000e+01,
4.80000e-02,-4.64000e+00,3.44000e+01,
-8.00000e-03,-4.56000e+00,3.28000e+01,
4.80000e-02,4.72000e+00,3.44000e+01,
4.40000e-02,-4.56000e+00,3.28000e+01,
-8.00000e-03,4.72000e+00,3.44000e+01,
-8.00000e-03,4.72000e+00,3.44000e+01,
4.80000e-02,-4.64000e+00,3.28000e+01,
-8.00000e-03,-4.56000e+00,3.28000e+01,
4.40000e-02,4.72000e+00,3.44000e+01,
4.40000e-02,-4.56000e+00,3.28000e+01,
-1.20000e-02,4.72000e+00,3.44000e+01,
4.40000e-02,-4.64000e+00,3.28000e+01,
-1.20000e-02,4.72000e+00,3.44000e+01,
4.40000e-02,-4.56000e+00,3.28000e+01,
-8.00000e-03,4.72000e+00,3.44000e+01,
4.40000e-02,4.72000e+00,3.28000e+01,
-1.20000e-02,-4.64000e+00,3.44000e+01,
4.40000e-02,-4.56000e+00,3.28000e+01,
-1.20000e-02,4.72000e+00,3.44000e+01,
4.80000e-02,4.72000e+00,3.28000e+01,
-1.20000e-02,-4.64000e+00,3.44000e+01,
4.40000e-02,4.72000e+00,3.28000e+01,
-1.20000e-02,-4.64000e+00,3.44000e+01,
-8.00000e-03,-4.64000e+00,3.28000e+01,
4.40000e-02,4.72000e+00,3.44000e+01,
-1.20000e-02,4.72000e+00,3.28000e+01,
4.40000e-02,-4.64000e+00,3.44000e+01,
-1.20000e-02,-4.64000e+00,3.28000e+01,
4.40000e-02,4.72000e+00,3.44000e+01,
-8.00000e-03,-4.56000e+00,3.28000e+01,
