NewFile2.csv

CH1,CH2,CH3,Start,Increment,
2.48000e-01,4.96000e+00,3.28000e+01,
2.04000e-01,-4.96000e+00,3.44000e+01,
2.04000e-01,4.96000e+00,3.28000e+01,
2.48000e-01,-4.96000e+00,3.44000e+01,
2.04000e-01,4.96000e+00,3.28000e+01,
2.48000e-01,-4.96000e+00,3.44000e+01,
2.48000e-01,4.96000e+00,3.28000e+01,
2.04000e-01,-4.96000e+00,3.44000e+01,
2.48000e-01,-4.96000e+00,3.28000e+01,
2.04000e-01,4.96000e+00,3.44000e+01,
2.04000e-01,-4.96000e+00,3.28000e+01,
2.48000e-01,4.96000e+00,3.44000e+01,
2.04000e-01,-4.96000e+00,3.28000e+01,
2.48000e-01,4.96000e+00,3.44000e+01,
2.48000e-01,4.96000e+00,3.28000e+01,
2.04000e-01,-4.96000e+00,3.44000e+01,
2.48000e-01,4.96000e+00,3.28000e+01,
2.04000e-01,-4.96000e+00,3.44000e+01,
2.04000e-01,4.96000e+00,3.28000e+01,
2.48000e-01,-4.96000e+00,3.44000e+01,
2.48000e-01,4.96000e+00,3.28000e+01,
2.04000e-01,-4.96000e+00,3.44000e+01,
2.48000e-01,-4.96000e+00,3.28000e+01,
2.04000e-01,4.96000e+00,3.44000e+01,
2.08000e-01,-4.96000e+00,3.28000e+01,
2.48000e-01,4.96000e+00,3.44000e+01,
2.48000e-01,-4.96000e+00,3.44000e+01,
2.04000e-01,4.96000e+00,3.28000e+01,
2.04000e-01,-4.96000e+00,3.28000e+01,
2.52000e-01,4.96000e+00,3.44000e+01,
2.48000e-01,4.96000e+00,3.28000e+01,
2.04000e-01,-4.96000e+00,3.44000e+01,
2.08000e-01,-4.96000e+00,3.28000e+01,
2.48000e-01,5.04000e+00,3.44000e+01,
2.04000e-01,4.96000e+00,3.28000e+01,
2.48000e-01,-4.96000e+00,3.44000e+01,
2.48000e-01,-4.96000e+00,3.28000e+01,
2.08000e-01,4.96000e+00,3.44000e+01,
2.48000e-01,-4.96000e+00,3.28000e+01,
2.04000e-01,4.96000e+00,3.44000e+01,
2.48000e-01,-4.96000e+00,3.28000e+01,
2.04000e-01,4.96000e+00,3.44000e+01,
2.08000e-01,-4.96000e+00,3.44000e+01,
2.48000e-01,4.96000e+00,3.28000e+01,
2.08000e-01,4.96000e+00,3.28000e+01,
2.48000e-01,-4.96000e+00,3.44000e+01,
2.04000e-01,4.96000e+00,3.28000e+01,
2.48000e-01,-5.04000e+00,3.44000e+01,
2.08000e-01,4.96000e+00,3.28000e+01,
2.48000e-01,-5.04000e+00,3.44000e+01,
2.48000e-01,-4.96000e+00,3.44000e+01,
2.04000e-01,5.04000e+00,3.28000e+01,
2.48000e-01,-5.04000e+00,3.28000e+01,
2.08000e-01,5.04000e+00,3.44000e+01,
2.08000e-01,4.96000e+00,3.28000e+01,
2.52000e-01,-5.04000e+00,3.44000e+01,
2.04000e-01,4.96000e+00,3.28000e+01,
2.56000e-01,-4.96000e+00,3.44000e+01,
2.56000e-01,-4.96000e+00,3.44000e+01,
2.08000e-01,4.96000e+00,3.28000e+01,
2.52000e-01,-4.96000e+00,3.28000e+01,
2.04000e-01,4.96000e+00,3.44000e+01,
2.52000e-01,-5.04000e+00,3.28000e+01,
2.04000e-01,5.04000e+00,3.44000e+01,
2.08000e-01,5.04000e+00,3.44000e+01,
2.52000e-01,-5.04000e+00,3.28000e+01,
2.48000e-01,-4.96000e+00,3.44000e+01,
2.08000e-01,4.96000e+00,3.28000e+01,
2.08000e-01,-4.96000e+00,3.44000e+01,
2.52000e-01,5.04000e+00,3.28000e+01,
2.08000e-01,-4.96000e+00,3.28000e+01,
2.52000e-01,4.96000e+00,3.44000e+01,
2.08000e-01,-4.96000e+00,3.28000e+01,
2.60000e-01,5.04000e+00,3.44000e+01,
2.52000e-01,-4.96000e+00,3.44000e+01,
2.08000e-01,5.12000e+00,3.28000e+01,
2.08000e-01,4.96000e+00,3.44000e+01,
2.52000e-01,-4.96000e+00,3.28000e+01,
2.52000e-01,-4.96000e+00,3.44000e+01,
2.08000e-01,5.04000e+00,3.28000e+01,
2.08000e-01,4.96000e+00,3.44000e+01,
2.56000e-01,-5.04000e+00,3.28000e+01,
2.52000e-01,-4.96000e+00,3.44000e+01,
2.08000e-01,4.96000e+00,3.28000e+01,
2.08000e-01,-4.96000e+00,3.44000e+01,
2.56000e-01,5.04000e+00,3.28000e+01,
2.08000e-01,-4.96000e+00,3.44000e+01,
2.56000e-01,5.04000e+00,3.28000e+01,
2.08000e-01,-4.96000e+00,3.44000e+01,
2.52000e-01,5.04000e+00,3.28000e+01,
2.08000e-01,-4.96000e+00,3.44000e+01,
2.56000e-01,5.04000e+00,3.28000e+01,
2.52000e-01,-4.96000e+00,-8.00000e-01,
2.08000e-01,4.40000e+00,8.00000e-01,
2.04000e-01,-4.32000e+00,3.28000e+01,
2.56000e-01,4.48000e+00,3.44000e+01,
2.52000e-01,4.40000e+00,3.44000e+01,
2.08000e-01,-4.40000e+00,3.28000e+01,
2.56000e-01,4.40000e+00,3.44000e+01,
2.08000e-01,-4.40000e+00,3.28000e+01,
2.08000e-01,4.40000e+00,3.28000e+01,
2.52000e-01,-4.40000e+00,3.44000e+01,
2.12000e-01,-4.40000e+00,3.28000e+01,
2.52000e-01,4.48000e+00,3.44000e+01,
2.56000e-01,4.40000e+00,3.44000e+01,
2.08000e-01,-4.40000e+00,3.28000e+01,
2.08000e-01,-4.40000e+00,3.44000e+01,
2.56000e-01,4.40000e+00,3.28000e+01,
2.56000e-01,4.40000e+00,3.28000e+01,
2.12000e-01,-4.40000e+00,3.44000e+01,
2.52000e-01,4.48000e+00,3.28000e+01,
2.08000e-01,-4.40000e+00,3.44000e+01,
2.52000e-01,-4.40000e+00,3.28000e+01,
2.08000e-01,4.48000e+00,3.44000e+01,
2.12000e-01,-4.40000e+00,3.28000e+01,
2.52000e-01,4.48000e+00,3.44000e+01,
2.56000e-01,-4.40000e+00,3.28000e+01,
2.12000e-01,4.48000e+00,3.44000e+01,
2.08000e-01,4.48000e+00,3.44000e+01,
2.56000e-01,-4.40000e+00,3.28000e+01,
2.16000e-01,-4.40000e+00,3.28000e+01,
2.52000e-01,4.48000e+00,3.44000e+01,
2.16000e-01,4.48000e+00,3.44000e+01,
2.56000e-01,-4.40000e+00,3.28000e+01,
2.16000e-01,4.48000e+00,3.28000e+01,
2.52000e-01,-4.40000e+00,3.44000e+01,
2.12000e-01,4.48000e+00,3.28000e+01,
2.52000e-01,-4.40000e+00,3.44000e+01,
2.16000e-01,4.48000e+00,3.28000e+01,
2.60000e-01,-4.40000e+00,3.44000e+01,
2.56000e-01,4.48000e+00,3.44000e+01,
2.08000e-01,-4.40000e+00,3.28000e+01,
2.16000e-01,4.48000e+00,3.28000e+01,
2.52000e-01,-4.40000e+00,3.44000e+01,
2.16000e-01,4.48000e+00,3.44000e+01,
2.52000e-01,-4.40000e+00,3.28000e+01,
2.08000e-01,4.48000e+00,3.28000e+01,
2.56000e-01,-4.40000e+00,3.44000e+01,
2.12000e-01,4.48000e+00,3.28000e+01,
2.56000e-01,-4.40000e+00,3.44000e+01,
2.16000e-01,-4.40000e+00,3.28000e+01,
2.56000e-01,4.48000e+00,3.44000e+01,
2.16000e-01,4.48000e+00,3.28000e+01,
2.56000e-01,-4.40000e+00,3.44000e+01,
2.16000e-01,4.48000e+00,3.28000e+01,
2.56000e-01,-4.40000e+00,3.44000e+01,
2.16000e-01,4.48000e+00,3.28000e+01,
2.52000e-01,-4.48000e+00,3.44000e+01,
2.56000e-01,4.48000e+00,3.44000e+01,
2.08000e-01,-4.40000e+00,3.28000e+01,
2.16000e-01,-4.40000e+00,3.28000e+01,
2.60000e-01,4.56000e+00,3.44000e+01,
2.16000e-01,4.56000e+00,3.28000e+01,
2.52000e-01,-4.48000e+00,3.44000e+01,
2.16000e-01,-4.48000e+00,3.44000e+01,
2.56000e-01,4.56000e+00,3.28000e+01,
2.56000e-01,4.48000e+00,3.44000e+01,
2.12000e-01,-4.48000e+00,3.28000e+01,
2.12000e-01,4.48000e+00,3.44000e+01,
2.56000e-01,-4.48000e+00,3.28000e+01,
2.56000e-01,4.56000e+00,3.28000e+01,
2.12000e-01,-4.48000e+00,3.44000e+01,
2.16000e-01,-4.48000e+00,3.28000e+01,
2.56000e-01,4.56000e+00,3.44000e+01,
2.08000e-01,4.56000e+00,3.44000e+01,
2.56000e-01,-4.48000e+00,3.28000e+01,
2.56000e-01,-4.40000e+00,3.28000e+01,
2.08000e-01,4.56000e+00,3.44000e+01,
2.08000e-01,4.48000e+00,3.28000e+01,
2.56000e-01,-4.48000e+00,3.44000e+01,
2.16000e-01,-4.40000e+00,3.28000e+01,
2.60000e-01,4.48000e+00,3.44000e+01,
2.12000e-01,4.56000e+00,3.28000e+01,
2.56000e-01,-4.48000e+00,3.44000e+01,
2.16000e-01,4.56000e+00,3.28000e+01,
2.56000e-01,-4.48000e+00,3.44000e+01,
2.56000e-01,-4.48000e+00,3.44000e+01,
2.12000e-01,4.56000e+00,3.28000e+01,
2.16000e-01,-4.48000e+00,3.28000e+01,
2.56000e-01,4.56000e+00,3.44000e+01,
2.16000e-01,4.48000e+00,3.28000e+01,
2.56000e-01,-4.48000e+00,3.44000e+01,
2.60000e-01,-4.48000e+00,3.28000e+01,
2.12000e-01,4.56000e+00,3.44000e+01,
2.08000e-01,4.56000e+00,3.28000e+01,
2.56000e-01,-4.48000e+00,3.44000e+01,
2.16000e-01,4.56000e+00,3.28000e+01,
2.56000e-01,-4.48000e+00,3.44000e+01,
2.16000e-01,-4.48000e+00,3.28000e+01,
2.56000e-01,4.56000e+00,3.44000e+01,
2.16000e-01,4.56000e+00,3.28000e+01,
2.60000e-01,-4.48000e+00,3.44000e+01,
2.16000e-01,-4.48000e+00,3.44000e+01,
2.56000e-01,4.56000e+00,3.28000e+01,
2.16000e-01,-4.48000e+00,3.44000e+01,
2.60000e-01,4.56000e+00,3.28000e+01,
2.16000e-01,-4.48000e+00,3.44000e+01,
2.56000e-01,4.56000e+00,3.28000e+01,
2.16000e-01,-4.48000e+00,3.28000e+01,
2.56000e-01,4.56000e+00,3.44000e+01,
2.56000e-01,-4.48000e+00,3.28000e+01,
2.16000e-01,4.56000e+00,3.44000e+01,
2.56000e-01,4.56000e+00,3.28000e+01,
2.08000e-01,-4.48000e+00,3.44000e+01,
2.16000e-01,-4.48000e+00,3.44000e+01,
2.56000e-01,4.56000e+00,3.28000e+01,
2.56000e-01,-4.48000e+00,3.28000e+01,
2.08000e-01,4.56000e+00,3.44000e+01,
2.16000e-01,-4.48000e+00,3.28000e+01,
2.56000e-01,4.56000e+00,3.44000e+01,
2.56000e-01,4.56000e+00,3.28000e+01,
2.16000e-01,-4.48000e+00,3.44000e+01,
2.16000e-01,4.56000e+00,3.28000e+01,
2.60000e-01,-4.48000e+00,3.44000e+01,
2.16000e-01,4.56000e+00,3.28000e+01,
2.56000e-01,-4.48000e+00,3.44000e+01,
2.16000e-01,4.56000e+00,3.44000e+01,
2.60000e-01,-4.56000e+00,3.28000e+01,
2.16000e-01,-4.48000e+00,3.28000e+01,
2.56000e-01,4.56000e+00,3.44000e+01,
2.60000e-01,4.56000e+00,3.44000e+01,
2.16000e-01,-4.48000e+00,3.28000e+01,
2.16000e-01,-4.48000e+00,3.28000e+01,
2.56000e-01,4.56000e+00,3.44000e+01,
2.56000e-01,4.56000e+00,3.28000e+01,
2.16000e-01,-4.48000e+00,3.44000e+01,
2.16000e-01,4.56000e+00,3.28000e+01,
2.60000e-01,-4.48000e+00,3.44000e+01,
2.56000e-01,-4.48000e+00,3.28000e+01,
2.16000e-01,4.56000e+00,3.44000e+01,
2.16000e-01,-4.48000e+00,3.28000e+01,
2.60000e-01,4.56000e+00,3.44000e+01,
2.16000e-01,4.56000e+00,3.28000e+01,
2.56000e-01,-4.48000e+00,3.44000e+01,
2.16000e-01,4.56000e+00,3.28000e+01,
2.56000e-01,-4.48000e+00,3.44000e+01,
2.16000e-01,4.56000e+00,3.44000e+01,
2.56000e-01,-4.48000e+00,3.28000e+01,
2.56000e-01,4.56000e+00,3.44000e+01,
2.16000e-01,-4.48000e+00,3.28000e+01,
2.16000e-01,4.56000e+00,3.28000e+01,
2.60000e-01,-4.56000e+00,3.44000e+01,
2.60000e-01,4.56000e+00,3.44000e+01,
2.16000e-01,-4.48000e+00,3.28000e+01,
2.16000e-01,4.56000e+00,3.44000e+01,
2.60000e-01,-4.56000e+00,3.28000e+01,
2.16000e-01,-4.48000e+00,3.28000e+01,
2.60000e-01,4.64000e+00,3.44000e+01,
2.12000e-01,-4.56000e+00,3.28000e+01,
2.60000e-01,4.56000e+00,3.44000e+01,
2.16000e-01,4.64000e+00,3.28000e+01,
2.60000e-01,-4.56000e+00,3.44000e+01,
2.16000e-01,4.64000e+00,3.28000e+01,
2.60000e-01,-4.56000e+00,3.44000e+01,
2.56000e-01,4.64000e+00,3.28000e+01,
2.16000e-01,-4.56000e+00,3.44000e+01,
2.16000e-01,-4.56000e+00,3.28000e+01,
2.60000e-01,4.64000e+00,3.44000e+01,
2.16000e-01,-4.56000e+00,3.28000e+01,
2.60000e-01,4.64000e+00,3.44000e+01,
2.56000e-01,4.56000e+00,3.28000e+01,
2.16000e-01,-4.56000e+00,3.44000e+01,
2.16000e-01,4.56000e+00,3.44000e+01,
2.60000e-01,-4.56000e+00,3.28000e+01,
2.16000e-01,-4.56000e+00,3.28000e+01,
2.60000e-01,4.72000e+00,3.44000e+01,
2.16000e-01,-4.56000e+00,3.28000e+01,
2.60000e-01,4.64000e+00,3.44000e+01,
2.16000e-01,-4.56000e+00,3.28000e+01,
2.60000e-01,4.72000e+00,3.44000e+01,
2.16000e-01,-4.56000e+00,3.28000e+01,
2.60000e-01,4.64000e+00,3.44000e+01,
2.16000e-01,-4.56000e+00,3.44000e+01,
2.60000e-01,4.64000e+00,3.28000e+01,
2.16000e-01,4.56000e+00,3.28000e+01,
2.60000e-01,-4.56000e+00,3.44000e+01,
2.60000e-01,4.56000e+00,3.28000e+01,
2.16000e-01,-4.56000e+00,3.44000e+01,
2.16000e-01,-4.56000e+00,3.28000e+01,
2.60000e-01,4.64000e+00,3.44000e+01,
2.16000e-01,-4.56000e+00,3.28000e+01,
2.60000e-01,4.64000e+00,3.44000e+01,
2.16000e-01,-4.56000e+00,3.28000e+01,
2.60000e-01,4.72000e+00,3.44000e+01,
2.16000e-01,-4.56000e+00,3.28000e+01,
2.60000e-01,4.64000e+00,3.44000e+01,
2.60000e-01,-4.56000e+00,3.28000e+01,
2.16000e-01,4.72000e+00,3.44000e+01,
2.16000e-01,-4.56000e+00,3.44000e+01,
2.60000e-01,4.64000e+00,3.28000e+01,
2.16000e-01,-4.56000e+00,3.44000e+01,
2.60000e-01,4.72000e+00,3.28000e+01,
2.16000e-01,-4.56000e+00,3.28000e+01,
2.60000e-01,4.72000e+00,3.44000e+01,
2.16000e-01,-4.56000e+00,3.28000e+01,
2.60000e-01,4.64000e+00,3.44000e+01,
2.16000e-01,-4.56000e+00,3.44000e+01,
2.60000e-01,4.64000e+00,3.28000e+01,
2.16000e-01,-4.56000e+00,3.28000e+01,
2.60000e-01,4.72000e+00,3.44000e+01,
2.64000e-01,-4.56000e+00,3.44000e+01,
2.16000e-01,4.64000e+00,3.28000e+01,
2.16000e-01,-4.56000e+00,3.44000e+01,
2.60000e-01,4.64000e+00,3.28000e+01,
2.16000e-01,-4.56000e+00,3.44000e+01,
2.60000e-01,4.72000e+00,3.28000e+01,
2.16000e-01,-4.56000e+00,3.28000e+01,
2.60000e-01,4.72000e+00,3.44000e+01,
2.20000e-01,-4.56000e+00,3.28000e+01,
2.60000e-01,4.72000e+00,3.44000e+01,
2.60000e-01,-4.56000e+00,3.44000e+01,
2.16000e-01,4.64000e+00,3.28000e+01,
2.20000e-01,-4.56000e+00,3.44000e+01,
2.60000e-01,4.72000e+00,3.28000e+01,
2.16000e-01,-4.56000e+00,3.44000e+01,
2.60000e-01,4.72000e+00,3.28000e+01,
2.60000e-01,4.72000e+00,3.44000e+01,
2.16000e-01,-4.56000e+00,3.28000e+01,
2.16000e-01,-4.56000e+00,3.44000e+01,
2.60000e-01,4.72000e+00,3.28000e+01,
2.60000e-01,4.72000e+00,3.28000e+01,
2.16000e-01,-4.56000e+00,3.44000e+01,
2.16000e-01,-4.64000e+00,3.44000e+01,
2.60000e-01,4.72000e+00,3.28000e+01,
2.56000e-01,-4.56000e+00,3.28000e+01,
2.16000e-01,4.72000e+00,3.44000e+01,
2.60000e-01,-4.56000e+00,3.28000e+01,
2.16000e-01,4.72000e+00,3.44000e+01,
2.16000e-01,-4.56000e+00,3.28000e+01,
2.60000e-01,4.72000e+00,3.44000e+01,
2.60000e-01,-4.56000e+00,3.44000e+01,
2.16000e-01,4.72000e+00,3.28000e+01,
2.16000e-01,-4.56000e+00,3.28000e+01,
2.60000e-01,4.72000e+00,3.44000e+01,
2.16000e-01,-4.56000e+00,3.28000e+01,
2.60000e-01,4.72000e+00,3.44000e+01,
2.60000e-01,-4.56000e+00,3.44000e+01,
2.16000e-01,4.72000e+00,3.28000e+01,
2.60000e-01,-4.56000e+00,3.28000e+01,
2.16000e-01,4.72000e+00,3.44000e+01,
2.60000e-01,4.72000e+00,3.28000e+01,
2.16000e-01,-4.64000e+00,3.44000e+01,
2.16000e-01,4.72000e+00,3.28000e+01,
2.56000e-01,-4.56000e+00,3.44000e+01,
2.16000e-01,4.72000e+00,3.44000e+01,
2.60000e-01,-4.64000e+00,3.28000e+01,
2.16000e-01,4.72000e+00,3.28000e+01,
2.60000e-01,-4.64000e+00,3.44000e+01,
2.16000e-01,4.72000e+00,3.44000e+01,
2.60000e-01,-4.64000e+00,3.28000e+01,
2.16000e-01,4.72000e+00,3.44000e+01,
2.60000e-01,-4.64000e+00,3.28000e+01,
2.16000e-01,4.72000e+00,3.28000e+01,
2.64000e-01,-4.64000e+00,3.44000e+01,
2.16000e-01,4.72000e+00,3.44000e+01,
2.60000e-01,-4.64000e+00,3.28000e+01,
2.16000e-01,4.72000e+00,3.44000e+01,
2.60000e-01,-4.64000e+00,3.28000e+01,
2.60000e-01,-4.64000e+00,3.44000e+01,
2.16000e-01,4.72000e+00,3.28000e+01,
2.16000e-01,-4.64000e+00,3.28000e+01,
2.60000e-01,4.72000e+00,3.44000e+01,
2.60000e-01,4.72000e+00,3.28000e+01,
2.16000e-01,-4.64000e+00,3.44000e+01,
2.16000e-01,-4.64000e+00,3.28000e+01,
2.60000e-01,4.72000e+00,3.44000e+01,
2.16000e-01,4.72000e+00,3.28000e+01,
2.60000e-01,-4.64000e+00,3.44000e+01,
2.16000e-01,-4.64000e+00,3.44000e+01,
2.60000e-01,4.72000e+00,3.28000e+01,
2.60000e-01,4.72000e+00,3.44000e+01,
2.16000e-01,-4.64000e+00,3.28000e+01,
2.60000e-01,-4.64000e+00,3.44000e+01,
2.16000e-01,4.72000e+00,3.28000e+01,
2.16000e-01,4.72000e+00,3.28000e+01,
2.60000e-01,-4.64000e+00,3.44000e+01,
2.16000e-01,4.72000e+00,3.44000e+01,
2.60000e-01,-4.64000e+00,3.28000e+01,
2.60000e-01,4.72000e+00,3.28000e+01,
2.16000e-01,-4.64000e+00,3.44000e+01,
2.60000e-01,-4.64000e+00,3.44000e+01,
2.16000e-01,4.72000e+00,3.28000e+01,
2.60000e-01,-4.64000e+00,3.44000e+01,
2.16000e-01,4.80000e+00,3.28000e+01,
2.16000e-01,-4.64000e+00,3.44000e+01,
2.60000e-01,4.72000e+00,3.28000e+01,
2.60000e-01,-4.64000e+00,3.44000e+01,
2.16000e-01,4.72000e+00,3.28000e+01,
2.60000e-01,-4.64000e+00,3.44000e+01,
2.16000e-01,4.72000e+00,3.28000e+01,
2.16000e-01,-4.64000e+00,3.28000e+01,
2.60000e-01,4.72000e+00,3.44000e+01,
2.16000e-01,-4.64000e+00,3.44000e+01,
2.64000e-01,4.72000e+00,3.28000e+01,
2.16000e-01,-4.64000e+00,3.28000e+01,
2.60000e-01,4.72000e+00,3.44000e+01,
2.20000e-01,-4.64000e+00,3.28000e+01,
2.60000e-01,4.80000e+00,3.44000e+01,
2.20000e-01,-4.64000e+00,3.44000e+01,
2.60000e-01,4.72000e+00,3.28000e+01,
2.60000e-01,-4.64000e+00,3.28000e+01,
2.16000e-01,4.72000e+00,3.44000e+01,
2.20000e-01,-4.64000e+00,3.28000e+01,
2.60000e-01,4.72000e+00,3.44000e+01,
2.60000e-01,4.80000e+00,3.44000e+01,
2.16000e-01,-4.64000e+00,3.28000e+01,
2.20000e-01,-4.64000e+00,3.44000e+01,
2.60000e-01,4.72000e+00,3.28000e+01,
2.60000e-01,-4.64000e+00,3.28000e+01,
2.16000e-01,4.80000e+00,3.44000e+01,
2.60000e-01,-4.64000e+00,3.28000e+01,
2.16000e-01,4.72000e+00,3.44000e+01,
2.60000e-01,4.72000e+00,3.28000e+01,
2.16000e-01,-4.64000e+00,3.44000e+01,
2.60000e-01,-4.64000e+00,3.44000e+01,
2.16000e-01,4.80000e+00,3.28000e+01,
2.60000e-01,-4.64000e+00,3.44000e+01,
2.16000e-01,4.72000e+00,3.28000e+01,
2.60000e-01,-4.64000e+00,3.28000e+01,
2.16000e-01,4.72000e+00,3.44000e+01,
2.60000e-01,-4.64000e+00,3.44000e+01,
2.16000e-01,4.80000e+00,3.28000e+01,
2.60000e-01,-4.64000e+00,3.44000e+01,
2.16000e-01,4.72000e+00,3.28000e+01,
2.60000e-01,-4.64000e+00,3.44000e+01,
2.16000e-01,4.80000e+00,3.28000e+01,
2.60000e-01,-4.64000e+00,3.44000e+01,
2.16000e-01,4.72000e+00,3.28000e+01,
2.60000e-01,-4.64000e+00,3.44000e+01,
2.16000e-01,4.80000e+00,3.28000e+01,
2.60000e-01,-4.64000e+00,3.28000e+01,
2.16000e-01,4.72000e+00,3.44000e+01,
2.16000e-01,-4.64000e+00,3.28000e+01,
2.64000e-01,4.72000e+00,3.44000e+01,
2.16000e-01,-4.64000e+00,3.28000e+01,
2.60000e-01,4.80000e+00,3.44000e+01,
2.16000e-01,-4.64000e+00,3.44000e+01,
2.60000e-01,4.80000e+00,3.28000e+01,
2.16000e-01,-4.64000e+00,3.28000e+01,
2.60000e-01,4.80000e+00,3.44000e+01,
2.16000e-01,-4.64000e+00,3.28000e+01,
2.60000e-01,4.80000e+00,3.44000e+01,
2.60000e-01,-4.64000e+00,3.28000e+01,
2.16000e-01,4.80000e+00,3.44000e+01,
2.20000e-01,-4.72000e+00,3.28000e+01,
2.60000e-01,4.80000e+00,3.44000e+01,
2.60000e-01,4.80000e+00,3.44000e+01,
2.16000e-01,-4.72000e+00,3.28000e+01,
2.64000e-01,-4.64000e+00,3.28000e+01,
2.16000e-01,4.80000e+00,3.44000e+01,
2.60000e-01,4.80000e+00,3.44000e+01,
2.16000e-01,-4.72000e+00,3.28000e+01,
2.60000e-01,4.80000e+00,3.28000e+01,
2.16000e-01,-4.72000e+00,3.44000e+01,
2.16000e-01,-4.80000e+00,3.44000e+01,
2.60000e-01,4.80000e+00,3.28000e+01,
2.60000e-01,4.80000e+00,3.28000e+01,
2.08000e-01,-4.72000e+00,3.44000e+01,
2.60000e-01,4.80000e+00,3.28000e+01,
2.16000e-01,-4.72000e+00,3.44000e+01,
2.60000e-01,4.80000e+00,3.28000e+01,
2.16000e-01,-4.72000e+00,3.44000e+01,
2.64000e-01,4.80000e+00,3.44000e+01,
2.16000e-01,-4.72000e+00,3.28000e+01,
2.20000e-01,4.80000e+00,3.28000e+01,
2.60000e-01,-4.72000e+00,3.44000e+01,
2.16000e-01,4.80000e+00,3.28000e+01,
2.60000e-01,-4.64000e+00,3.44000e+01,
2.16000e-01,4.80000e+00,3.44000e+01,
2.60000e-01,-4.72000e+00,3.28000e+01,
2.16000e-01,-4.72000e+00,3.28000e+01,
2.60000e-01,4.80000e+00,3.44000e+01,
2.60000e-01,4.80000e+00,3.28000e+01,
2.16000e-01,-4.72000e+00,3.44000e+01,
2.60000e-01,4.80000e+00,3.28000e+01,
2.12000e-01,-4.72000e+00,3.44000e+01,
2.16000e-01,4.80000e+00,3.28000e+01,
2.60000e-01,-4.72000e+00,3.44000e+01,
2.16000e-01,4.80000e+00,3.28000e+01,
2.60000e-01,-4.72000e+00,3.44000e+01,
2.60000e-01,4.80000e+00,3.28000e+01,
2.16000e-01,-4.72000e+00,3.44000e+01,
2.60000e-01,4.80000e+00,3.44000e+01,
2.16000e-01,-4.72000e+00,3.28000e+01,
2.16000e-01,4.80000e+00,3.44000e+01,
2.60000e-01,-4.80000e+00,3.28000e+01,
2.60000e-01,4.80000e+00,3.28000e+01,
2.16000e-01,-4.80000e+00,3.44000e+01,
2.60000e-01,4.80000e+00,3.28000e+01,
2.16000e-01,-4.80000e+00,3.44000e+01,
2.60000e-01,-4.72000e+00,3.28000e+01,
2.16000e-01,4.80000e+00,3.44000e+01,
2.60000e-01,-4.72000e+00,3.28000e+01,
2.16000e-01,4.80000e+00,3.44000e+01,
2.60000e-01,4.80000e+00,3.28000e+01,
2.16000e-01,-4.80000e+00,3.44000e+01,
2.60000e-01,4.80000e+00,3.28000e+01,
2.16000e-01,-4.80000e+00,3.44000e+01,
2.60000e-01,4.80000e+00,3.28000e+01,
2.16000e-01,-4.80000e+00,3.44000e+01,
2.16000e-01,4.80000e+00,3.28000e+01,
2.60000e-01,-4.80000e+00,3.44000e+01,
2.16000e-01,4.80000e+00,3.28000e+01,
2.60000e-01,-4.80000e+00,3.44000e+01,
2.60000e-01,4.80000e+00,3.28000e+01,
2.16000e-01,-4.80000e+00,3.44000e+01,
2.60000e-01,4.80000e+00,3.28000e+01,
2.16000e-01,-4.80000e+00,3.44000e+01,
2.60000e-01,4.80000e+00,3.28000e+01,
2.16000e-01,-4.80000e+00,3.44000e+01,
2.16000e-01,-4.80000e+00,3.28000e+01,
2.60000e-01,4.80000e+00,3.44000e+01,
2.20000e-01,4.80000e+00,3.28000e+01,
2.60000e-01,-4.80000e+00,3.44000e+01,
2.16000e-01,4.80000e+00,3.28000e+01,
2.60000e-01,-4.80000e+00,3.44000e+01,
2.60000e-01,4.80000e+00,3.44000e+01,
2.16000e-01,-4.80000e+00,3.28000e+01,
2.16000e-01,4.80000e+00,3.28000e+01,
2.60000e-01,-4.80000e+00,3.44000e+01,
2.60000e-01,4.80000e+00,3.28000e+01,
2.16000e-01,-4.80000e+00,3.44000e+01,
2.60000e-01,4.80000e+00,3.44000e+01,
2.20000e-01,-4.80000e+00,3.28000e+01,
2.60000e-01,4.80000e+00,3.28000e+01,
2.16000e-01,-4.80000e+00,3.44000e+01,
2.60000e-01,4.80000e+00,3.44000e+01,
2.16000e-01,-4.80000e+00,3.28000e+01,
2.60000e-01,4.80000e+00,3.28000e+01,
2.16000e-01,-4.80000e+00,3.44000e+01,
2.20000e-01,4.80000e+00,3.28000e+01,
2.60000e-01,-4.80000e+00,3.44000e+01,
