NewFile18.csv

CH1,CH2,CH3,Start,Increment,
2.36000e-01,-4.40000e+00,3.44000e+01,
1.68000e-01,4.48000e+00,3.28000e+01,
1.68000e-01,-4.40000e+00,3.28000e+01,
2.36000e-01,4.40000e+00,3.44000e+01,
1.60000e-01,4.40000e+00,3.44000e+01,
2.36000e-01,-4.40000e+00,3.28000e+01,
2.28000e-01,-4.40000e+00,3.28000e+01,
1.60000e-01,4.48000e+00,3.44000e+01,
1.64000e-01,-4.40000e+00,3.44000e+01,
2.36000e-01,4.40000e+00,3.28000e+01,
1.68000e-01,-4.40000e+00,3.28000e+01,
2.32000e-01,4.40000e+00,3.44000e+01,
1.68000e-01,4.40000e+00,3.28000e+01,
2.40000e-01,-4.40000e+00,3.44000e+01,
1.72000e-01,-4.40000e+00,3.28000e+01,
2.40000e-01,4.40000e+00,3.44000e+01,
1.72000e-01,-4.40000e+00,3.28000e+01,
2.36000e-01,4.48000e+00,3.44000e+01,
1.72000e-01,4.48000e+00,3.28000e+01,
2.40000e-01,-4.40000e+00,3.44000e+01,
1.76000e-01,-4.40000e+00,3.28000e+01,
2.48000e-01,4.40000e+00,3.44000e+01,
2.36000e-01,-4.40000e+00,3.28000e+01,
1.72000e-01,4.48000e+00,3.44000e+01,
2.36000e-01,-4.40000e+00,3.28000e+01,
1.72000e-01,4.48000e+00,3.44000e+01,
1.60000e-01,4.48000e+00,3.44000e+01,
2.40000e-01,-4.40000e+00,3.28000e+01,
1.72000e-01,4.40000e+00,3.28000e+01,
2.36000e-01,-4.40000e+00,3.44000e+01,
2.40000e-01,-4.40000e+00,3.28000e+01,
1.68000e-01,4.48000e+00,3.44000e+01,
1.72000e-01,-4.40000e+00,3.28000e+01,
2.36000e-01,4.48000e+00,3.44000e+01,
2.36000e-01,-4.40000e+00,3.28000e+01,
1.72000e-01,4.48000e+00,3.44000e+01,
1.72000e-01,4.48000e+00,3.28000e+01,
2.40000e-01,-4.40000e+00,3.44000e+01,
2.36000e-01,-4.40000e+00,3.28000e+01,
1.72000e-01,4.48000e+00,3.44000e+01,
1.72000e-01,-4.40000e+00,3.28000e+01,
2.36000e-01,4.48000e+00,3.44000e+01,
1.72000e-01,-4.40000e+00,3.44000e+01,
2.36000e-01,4.48000e+00,3.28000e+01,
1.72000e-01,-4.40000e+00,3.44000e+01,
2.48000e-01,4.48000e+00,3.28000e+01,
1.72000e-01,4.48000e+00,3.44000e+01,
2.40000e-01,-4.40000e+00,3.28000e+01,
2.36000e-01,-4.40000e+00,3.28000e+01,
1.72000e-01,4.48000e+00,3.44000e+01,
1.68000e-01,-4.40000e+00,3.28000e+01,
2.44000e-01,4.48000e+00,3.44000e+01,
2.40000e-01,4.40000e+00,3.28000e+01,
1.76000e-01,-4.40000e+00,3.44000e+01,
1.80000e-01,4.48000e+00,3.44000e+01,
2.36000e-01,-4.40000e+00,3.28000e+01,
1.80000e-01,-4.40000e+00,3.44000e+01,
2.52000e-01,4.48000e+00,3.28000e+01,
1.80000e-01,4.40000e+00,3.28000e+01,
2.48000e-01,-4.40000e+00,3.44000e+01,
1.80000e-01,-4.40000e+00,3.28000e+01,
2.44000e-01,4.48000e+00,3.44000e+01,
2.56000e-01,-4.40000e+00,3.28000e+01,
1.80000e-01,4.48000e+00,3.44000e+01,
1.80000e-01,-4.40000e+00,3.28000e+01,
2.44000e-01,4.48000e+00,3.44000e+01,
1.72000e-01,4.40000e+00,3.44000e+01,
2.44000e-01,-4.40000e+00,3.28000e+01,
1.76000e-01,4.48000e+00,3.28000e+01,
2.48000e-01,-4.40000e+00,3.44000e+01,
1.80000e-01,4.48000e+00,3.44000e+01,
2.48000e-01,-4.40000e+00,3.28000e+01,
2.48000e-01,4.40000e+00,3.44000e+01,
1.72000e-01,-4.40000e+00,3.28000e+01,
1.80000e-01,4.40000e+00,3.28000e+01,
2.40000e-01,-4.40000e+00,3.44000e+01,
2.40000e-01,-4.40000e+00,3.28000e+01,
1.76000e-01,4.40000e+00,3.44000e+01,
1.68000e-01,-4.40000e+00,3.44000e+01,
2.36000e-01,4.48000e+00,3.28000e+01,
1.72000e-01,4.48000e+00,3.28000e+01,
2.40000e-01,-4.40000e+00,3.44000e+01,
1.76000e-01,-4.40000e+00,3.44000e+01,
2.40000e-01,4.40000e+00,3.28000e+01,
2.40000e-01,-4.40000e+00,3.28000e+01,
1.68000e-01,4.48000e+00,3.44000e+01,
2.36000e-01,-4.40000e+00,3.28000e+01,
1.72000e-01,4.48000e+00,3.44000e+01,
1.68000e-01,-4.40000e+00,3.44000e+01,
2.48000e-01,4.48000e+00,3.28000e+01,
1.72000e-01,4.40000e+00,3.44000e+01,
2.40000e-01,-4.40000e+00,3.28000e+01,
1.72000e-01,4.40000e+00,3.28000e+01,
2.36000e-01,-4.40000e+00,3.44000e+01,
2.36000e-01,-4.40000e+00,3.28000e+01,
1.68000e-01,4.48000e+00,3.44000e+01,
1.72000e-01,-4.40000e+00,3.28000e+01,
2.40000e-01,4.48000e+00,3.44000e+01,
2.40000e-01,-4.40000e+00,3.28000e+01,
1.72000e-01,4.48000e+00,3.44000e+01,
1.72000e-01,4.40000e+00,3.44000e+01,
2.36000e-01,-4.40000e+00,3.28000e+01,
2.36000e-01,4.40000e+00,3.28000e+01,
1.64000e-01,-4.40000e+00,3.44000e+01,
2.36000e-01,4.40000e+00,3.28000e+01,
1.68000e-01,-4.40000e+00,3.44000e+01,
2.36000e-01,4.40000e+00,3.28000e+01,
1.68000e-01,-4.40000e+00,3.44000e+01,
1.68000e-01,-4.40000e+00,3.44000e+01,
2.36000e-01,4.40000e+00,3.28000e+01,
2.36000e-01,4.40000e+00,3.44000e+01,
1.72000e-01,-4.40000e+00,3.28000e+01,
1.68000e-01,4.40000e+00,3.28000e+01,
2.40000e-01,-4.40000e+00,3.44000e+01,
2.32000e-01,4.40000e+00,3.44000e+01,
1.68000e-01,-4.40000e+00,3.28000e+01,
2.28000e-01,4.40000e+00,3.44000e+01,
1.64000e-01,-4.40000e+00,3.28000e+01,
2.24000e-01,4.40000e+00,3.28000e+01,
1.60000e-01,-4.40000e+00,3.44000e+01,
2.28000e-01,-4.40000e+00,3.28000e+01,
1.64000e-01,4.40000e+00,3.44000e+01,
1.60000e-01,4.40000e+00,3.44000e+01,
2.24000e-01,-4.40000e+00,3.28000e+01,
1.48000e-01,-4.40000e+00,3.28000e+01,
2.28000e-01,4.48000e+00,3.44000e+01,
1.60000e-01,4.40000e+00,3.44000e+01,
2.24000e-01,-4.40000e+00,3.28000e+01,
1.60000e-01,4.40000e+00,3.28000e+01,
2.24000e-01,-4.40000e+00,3.44000e+01,
2.16000e-01,4.40000e+00,3.28000e+01,
1.48000e-01,-4.40000e+00,3.44000e+01,
2.16000e-01,4.40000e+00,3.28000e+01,
1.56000e-01,-4.40000e+00,3.44000e+01,
1.56000e-01,4.40000e+00,3.44000e+01,
2.16000e-01,-4.40000e+00,3.28000e+01,
2.12000e-01,4.40000e+00,3.44000e+01,
1.48000e-01,-4.40000e+00,3.28000e+01,
1.48000e-01,4.40000e+00,3.28000e+01,
2.32000e-01,-4.40000e+00,3.44000e+01,
2.16000e-01,4.40000e+00,3.28000e+01,
1.56000e-01,-4.40000e+00,3.44000e+01,
2.16000e-01,4.40000e+00,3.28000e+01,
1.48000e-01,-4.40000e+00,3.44000e+01,
1.44000e-01,4.40000e+00,3.28000e+01,
2.20000e-01,-4.40000e+00,3.44000e+01,
2.08000e-01,4.40000e+00,3.28000e+01,
1.40000e-01,-4.40000e+00,3.44000e+01,
2.08000e-01,4.40000e+00,3.28000e+01,
1.40000e-01,-4.40000e+00,3.44000e+01,
1.44000e-01,4.40000e+00,3.28000e+01,
2.08000e-01,-4.40000e+00,3.44000e+01,
1.32000e-01,4.40000e+00,3.28000e+01,
2.08000e-01,-4.40000e+00,3.44000e+01,
1.36000e-01,4.48000e+00,3.28000e+01,
2.04000e-01,-4.40000e+00,3.44000e+01,
2.00000e-01,4.40000e+00,3.28000e+01,
1.40000e-01,-4.40000e+00,3.44000e+01,
1.36000e-01,-4.40000e+00,3.44000e+01,
2.04000e-01,4.48000e+00,3.28000e+01,
2.04000e-01,4.40000e+00,3.28000e+01,
1.32000e-01,-4.40000e+00,3.44000e+01,
1.36000e-01,4.40000e+00,3.44000e+01,
2.04000e-01,-4.32000e+00,3.28000e+01,
1.32000e-01,4.40000e+00,3.28000e+01,
2.08000e-01,-4.32000e+00,3.44000e+01,
2.00000e-01,-4.40000e+00,3.28000e+01,
1.36000e-01,4.40000e+00,3.44000e+01,
1.36000e-01,4.40000e+00,3.28000e+01,
1.96000e-01,-4.40000e+00,3.44000e+01,
1.36000e-01,4.40000e+00,3.44000e+01,
2.04000e-01,-4.40000e+00,3.28000e+01,
1.36000e-01,4.40000e+00,3.28000e+01,
2.04000e-01,-4.40000e+00,3.44000e+01,
2.00000e-01,4.40000e+00,3.28000e+01,
1.32000e-01,-4.40000e+00,3.44000e+01,
1.32000e-01,4.40000e+00,3.28000e+01,
2.04000e-01,-4.40000e+00,3.44000e+01,
1.36000e-01,4.40000e+00,3.44000e+01,
2.08000e-01,-4.40000e+00,3.28000e+01,
1.36000e-01,-4.32000e+00,3.28000e+01,
2.04000e-01,4.48000e+00,3.44000e+01,
1.44000e-01,4.40000e+00,3.44000e+01,
2.00000e-01,-4.40000e+00,3.28000e+01,
1.40000e-01,4.40000e+00,3.44000e+01,
2.04000e-01,-4.40000e+00,3.28000e+01,
2.04000e-01,-4.32000e+00,3.44000e+01,
1.36000e-01,4.40000e+00,3.28000e+01,
1.32000e-01,4.40000e+00,3.28000e+01,
1.96000e-01,-4.40000e+00,3.44000e+01,
1.36000e-01,-4.40000e+00,3.28000e+01,
2.08000e-01,4.48000e+00,3.44000e+01,
2.04000e-01,4.40000e+00,3.28000e+01,
1.32000e-01,-4.40000e+00,3.44000e+01,
1.40000e-01,4.40000e+00,3.28000e+01,
2.04000e-01,-4.40000e+00,3.44000e+01,
1.36000e-01,4.40000e+00,3.44000e+01,
2.08000e-01,-4.32000e+00,3.28000e+01,
1.44000e-01,4.40000e+00,3.28000e+01,
2.04000e-01,-4.40000e+00,3.44000e+01,
1.44000e-01,4.40000e+00,3.28000e+01,
2.12000e-01,-4.40000e+00,3.44000e+01,
2.00000e-01,4.40000e+00,3.28000e+01,
1.44000e-01,-4.40000e+00,3.44000e+01,
1.36000e-01,4.40000e+00,3.28000e+01,
2.12000e-01,-4.40000e+00,3.44000e+01,
1.44000e-01,4.40000e+00,3.44000e+01,
2.08000e-01,-4.40000e+00,3.28000e+01,
2.08000e-01,4.40000e+00,3.28000e+01,
1.44000e-01,-4.40000e+00,3.44000e+01,
2.12000e-01,4.40000e+00,3.28000e+01,
1.44000e-01,-4.40000e+00,3.44000e+01,
1.44000e-01,-4.40000e+00,3.28000e+01,
2.12000e-01,4.40000e+00,3.44000e+01,
2.04000e-01,4.40000e+00,3.28000e+01,
1.44000e-01,-4.40000e+00,3.44000e+01,
2.12000e-01,4.40000e+00,3.28000e+01,
1.48000e-01,-4.32000e+00,3.44000e+01,
1.48000e-01,-4.32000e+00,3.44000e+01,
2.04000e-01,4.48000e+00,3.28000e+01,
1.36000e-01,4.40000e+00,3.28000e+01,
2.04000e-01,-4.40000e+00,3.44000e+01,
1.44000e-01,4.48000e+00,3.44000e+01,
2.04000e-01,-4.40000e+00,3.28000e+01,
2.12000e-01,-4.32000e+00,3.44000e+01,
1.44000e-01,4.48000e+00,3.28000e+01,
1.40000e-01,-4.40000e+00,3.28000e+01,
2.12000e-01,4.40000e+00,3.44000e+01,
1.44000e-01,4.40000e+00,3.28000e+01,
2.08000e-01,-4.32000e+00,3.44000e+01,
1.44000e-01,-4.40000e+00,3.28000e+01,
2.12000e-01,4.48000e+00,3.44000e+01,
2.12000e-01,4.40000e+00,3.28000e+01,
1.44000e-01,-4.40000e+00,3.44000e+01,
1.48000e-01,-4.40000e+00,3.28000e+01,
2.12000e-01,4.48000e+00,3.44000e+01,
2.12000e-01,-4.40000e+00,3.44000e+01,
1.48000e-01,4.48000e+00,3.28000e+01,
1.48000e-01,4.48000e+00,3.44000e+01,
2.16000e-01,-4.32000e+00,3.28000e+01,
2.20000e-01,-4.40000e+00,3.28000e+01,
1.48000e-01,4.48000e+00,3.44000e+01,
2.16000e-01,4.40000e+00,3.28000e+01,
1.52000e-01,-4.40000e+00,3.44000e+01,
1.56000e-01,4.40000e+00,3.28000e+01,
2.16000e-01,-4.32000e+00,3.44000e+01,
1.44000e-01,4.40000e+00,3.28000e+01,
2.16000e-01,-4.40000e+00,3.44000e+01,
1.56000e-01,4.40000e+00,3.28000e+01,
2.24000e-01,-4.32000e+00,3.44000e+01,
1.64000e-01,4.40000e+00,3.44000e+01,
2.24000e-01,-4.40000e+00,3.28000e+01,
2.24000e-01,-4.24000e+00,3.44000e+01,
1.60000e-01,4.32000e+00,3.28000e+01,
1.60000e-01,4.16000e+00,3.28000e+01,
2.28000e-01,-4.08000e+00,3.44000e+01,
1.56000e-01,-4.32000e+00,3.28000e+01,
2.20000e-01,4.48000e+00,3.44000e+01,
1.60000e-01,-4.32000e+00,3.28000e+01,
2.24000e-01,4.48000e+00,3.44000e+01,
1.60000e-01,-4.40000e+00,3.28000e+01,
2.28000e-01,4.48000e+00,3.44000e+01,
2.24000e-01,4.48000e+00,3.28000e+01,
1.64000e-01,-4.40000e+00,3.44000e+01,
1.68000e-01,4.40000e+00,3.28000e+01,
2.32000e-01,-4.40000e+00,3.44000e+01,
1.68000e-01,4.40000e+00,3.28000e+01,
2.36000e-01,-4.40000e+00,3.44000e+01,
1.72000e-01,-4.32000e+00,3.28000e+01,
2.36000e-01,4.48000e+00,3.44000e+01,
2.36000e-01,4.48000e+00,3.28000e+01,
1.68000e-01,-4.40000e+00,3.44000e+01,
2.36000e-01,4.48000e+00,3.28000e+01,
1.68000e-01,-4.40000e+00,3.44000e+01,
1.68000e-01,-4.40000e+00,3.28000e+01,
2.36000e-01,4.48000e+00,3.44000e+01,
2.36000e-01,4.40000e+00,3.28000e+01,
1.68000e-01,-4.32000e+00,3.44000e+01,
1.60000e-01,4.40000e+00,3.28000e+01,
2.36000e-01,-4.40000e+00,3.44000e+01,
2.36000e-01,4.40000e+00,3.44000e+01,
1.68000e-01,-4.40000e+00,3.28000e+01,
2.36000e-01,4.40000e+00,3.28000e+01,
1.64000e-01,-4.40000e+00,3.44000e+01,
1.68000e-01,4.40000e+00,3.28000e+01,
2.32000e-01,-4.40000e+00,3.44000e+01,
2.28000e-01,4.48000e+00,3.28000e+01,
1.60000e-01,-4.40000e+00,3.44000e+01,
2.36000e-01,4.40000e+00,3.44000e+01,
1.64000e-01,-4.32000e+00,3.28000e+01,
1.68000e-01,4.40000e+00,3.28000e+01,
2.36000e-01,-4.40000e+00,3.44000e+01,
1.60000e-01,4.40000e+00,3.28000e+01,
2.52000e-01,-4.40000e+00,3.44000e+01,
1.56000e-01,4.40000e+00,3.28000e+01,
2.44000e-01,-4.40000e+00,3.44000e+01,
1.72000e-01,-4.40000e+00,3.28000e+01,
2.36000e-01,4.48000e+00,3.44000e+01,
2.32000e-01,4.40000e+00,3.28000e+01,
1.68000e-01,-4.40000e+00,3.44000e+01,
1.72000e-01,4.40000e+00,3.28000e+01,
2.36000e-01,-4.32000e+00,3.44000e+01,
2.36000e-01,4.40000e+00,3.44000e+01,
1.64000e-01,-4.32000e+00,3.28000e+01,
1.64000e-01,4.40000e+00,3.28000e+01,
2.36000e-01,-4.40000e+00,3.44000e+01,
2.32000e-01,4.40000e+00,3.28000e+01,
1.72000e-01,-4.32000e+00,3.44000e+01,
1.56000e-01,4.40000e+00,3.28000e+01,
2.32000e-01,-4.40000e+00,3.44000e+01,
1.72000e-01,4.40000e+00,3.28000e+01,
2.36000e-01,-4.40000e+00,3.44000e+01,
1.68000e-01,4.40000e+00,3.44000e+01,
2.36000e-01,-4.32000e+00,3.28000e+01,
2.36000e-01,4.40000e+00,3.28000e+01,
1.72000e-01,-4.32000e+00,3.44000e+01,
2.36000e-01,4.40000e+00,3.44000e+01,
1.72000e-01,-4.40000e+00,3.28000e+01,
1.64000e-01,4.40000e+00,3.44000e+01,
2.36000e-01,-4.40000e+00,3.28000e+01,
1.68000e-01,4.40000e+00,3.28000e+01,
2.36000e-01,-4.32000e+00,3.44000e+01,
2.28000e-01,4.40000e+00,3.28000e+01,
1.72000e-01,-4.32000e+00,3.44000e+01,
2.48000e-01,4.40000e+00,3.28000e+01,
1.68000e-01,-4.32000e+00,3.44000e+01,
2.24000e-01,-4.40000e+00,3.28000e+01,
1.64000e-01,4.40000e+00,3.44000e+01,
2.28000e-01,4.40000e+00,3.28000e+01,
1.68000e-01,-4.40000e+00,3.44000e+01,
2.32000e-01,4.40000e+00,3.28000e+01,
1.60000e-01,-4.40000e+00,3.44000e+01,
2.28000e-01,4.40000e+00,3.44000e+01,
1.56000e-01,-4.32000e+00,3.28000e+01,
2.28000e-01,4.40000e+00,3.44000e+01,
1.68000e-01,-4.40000e+00,3.28000e+01,
1.60000e-01,4.40000e+00,3.44000e+01,
2.32000e-01,-4.32000e+00,3.28000e+01,
2.28000e-01,4.40000e+00,3.44000e+01,
1.68000e-01,-4.40000e+00,3.28000e+01,
2.32000e-01,4.40000e+00,3.44000e+01,
1.60000e-01,-4.32000e+00,3.28000e+01,
2.32000e-01,4.40000e+00,3.44000e+01,
1.64000e-01,-4.40000e+00,3.28000e+01,
1.68000e-01,4.40000e+00,3.44000e+01,
2.36000e-01,-4.32000e+00,3.28000e+01,
2.28000e-01,4.40000e+00,3.44000e+01,
1.60000e-01,-4.40000e+00,3.28000e+01,
2.32000e-01,4.40000e+00,3.44000e+01,
1.64000e-01,-4.32000e+00,3.28000e+01,
2.36000e-01,4.40000e+00,3.44000e+01,
1.60000e-01,-4.40000e+00,3.28000e+01,
2.32000e-01,4.40000e+00,3.44000e+01,
1.56000e-01,-4.40000e+00,3.28000e+01,
2.32000e-01,4.40000e+00,3.28000e+01,
1.60000e-01,-4.40000e+00,3.44000e+01,
1.68000e-01,4.40000e+00,3.44000e+01,
2.36000e-01,-4.40000e+00,3.28000e+01,
1.68000e-01,4.40000e+00,3.44000e+01,
2.24000e-01,-4.32000e+00,3.28000e+01,
2.28000e-01,4.40000e+00,3.44000e+01,
1.60000e-01,-4.32000e+00,3.28000e+01,
1.60000e-01,4.40000e+00,3.44000e+01,
2.28000e-01,-4.32000e+00,3.28000e+01,
1.60000e-01,4.40000e+00,3.44000e+01,
2.24000e-01,-4.32000e+00,3.28000e+01,
1.60000e-01,4.40000e+00,3.28000e+01,
2.28000e-01,-4.32000e+00,3.44000e+01,
1.56000e-01,4.40000e+00,3.28000e+01,
2.28000e-01,-4.40000e+00,3.44000e+01,
2.28000e-01,4.40000e+00,3.44000e+01,
1.64000e-01,-4.32000e+00,3.28000e+01,
1.60000e-01,4.40000e+00,3.44000e+01,
2.24000e-01,-4.40000e+00,3.28000e+01,
1.64000e-01,4.40000e+00,3.44000e+01,
2.28000e-01,-4.32000e+00,3.28000e+01,
2.28000e-01,4.40000e+00,3.44000e+01,
1.56000e-01,-4.24000e+00,3.28000e+01,
2.32000e-01,4.40000e+00,3.44000e+01,
1.60000e-01,-4.32000e+00,3.28000e+01,
1.60000e-01,4.40000e+00,3.44000e+01,
2.32000e-01,-4.32000e+00,3.28000e+01,
1.68000e-01,4.40000e+00,3.44000e+01,
2.32000e-01,-4.40000e+00,3.28000e+01,
2.28000e-01,4.40000e+00,3.44000e+01,
1.60000e-01,-4.32000e+00,3.28000e+01,
1.68000e-01,4.40000e+00,3.44000e+01,
2.28000e-01,-4.32000e+00,3.28000e+01,
1.60000e-01,4.40000e+00,3.28000e+01,
2.24000e-01,-4.32000e+00,3.44000e+01,
1.60000e-01,4.40000e+00,3.28000e+01,
2.28000e-01,-4.40000e+00,3.44000e+01,
1.68000e-01,4.40000e+00,3.44000e+01,
2.28000e-01,-4.40000e+00,3.28000e+01,
1.60000e-01,-4.40000e+00,3.44000e+01,
2.28000e-01,4.40000e+00,3.28000e+01,
1.60000e-01,4.40000e+00,3.28000e+01,
2.32000e-01,-4.32000e+00,3.44000e+01,
1.68000e-01,4.40000e+00,3.28000e+01,
2.32000e-01,-4.24000e+00,3.44000e+01,
1.68000e-01,4.40000e+00,3.44000e+01,
2.36000e-01,-4.40000e+00,3.28000e+01,
2.36000e-01,4.40000e+00,3.28000e+01,
1.60000e-01,-4.32000e+00,3.44000e+01,
2.36000e-01,4.40000e+00,3.28000e+01,
1.56000e-01,-4.32000e+00,3.44000e+01,
2.36000e-01,4.40000e+00,3.44000e+01,
1.68000e-01,-4.32000e+00,3.28000e+01,
1.60000e-01,4.40000e+00,3.44000e+01,
2.36000e-01,-4.32000e+00,3.28000e+01,
1.68000e-01,4.40000e+00,3.44000e+01,
2.36000e-01,-4.32000e+00,3.28000e+01,
2.32000e-01,4.40000e+00,3.28000e+01,
1.60000e-01,-4.40000e+00,3.44000e+01,
1.68000e-01,4.40000e+00,3.44000e+01,
2.40000e-01,-4.32000e+00,3.28000e+01,
2.36000e-01,4.40000e+00,3.44000e+01,
1.56000e-01,-4.32000e+00,3.28000e+01,
2.24000e-01,4.40000e+00,3.44000e+01,
1.64000e-01,-4.32000e+00,3.28000e+01,
2.24000e-01,4.40000e+00,3.44000e+01,
1.60000e-01,-4.32000e+00,3.28000e+01,
2.28000e-01,4.40000e+00,3.44000e+01,
1.68000e-01,-4.32000e+00,3.28000e+01,
1.68000e-01,4.40000e+00,3.28000e+01,
2.36000e-01,-4.40000e+00,3.44000e+01,
1.60000e-01,-4.24000e+00,3.44000e+01,
2.36000e-01,4.48000e+00,3.28000e+01,
2.36000e-01,-4.24000e+00,3.28000e+01,
1.60000e-01,4.40000e+00,3.44000e+01,
1.64000e-01,4.40000e+00,3.28000e+01,
2.28000e-01,-4.40000e+00,3.44000e+01,
1.60000e-01,4.40000e+00,3.28000e+01,
2.36000e-01,-4.32000e+00,3.44000e+01,
1.64000e-01,4.40000e+00,3.28000e+01,
2.36000e-01,-4.32000e+00,3.44000e+01,
1.56000e-01,4.40000e+00,3.44000e+01,
2.28000e-01,-4.40000e+00,3.28000e+01,
1.56000e-01,4.40000e+00,3.44000e+01,
2.36000e-01,-4.40000e+00,3.28000e+01,
1.72000e-01,-4.40000e+00,3.28000e+01,
2.36000e-01,4.40000e+00,3.44000e+01,
1.68000e-01,4.40000e+00,3.44000e+01,
2.40000e-01,-4.32000e+00,3.28000e+01,
2.36000e-01,4.40000e+00,3.44000e+01,
1.68000e-01,-4.32000e+00,3.28000e+01,
1.72000e-01,4.40000e+00,3.28000e+01,
2.40000e-01,-4.32000e+00,3.44000e+01,
2.40000e-01,4.40000e+00,3.28000e+01,
1.72000e-01,-4.32000e+00,3.44000e+01,
1.68000e-01,4.40000e+00,3.28000e+01,
2.40000e-01,-4.40000e+00,3.44000e+01,
1.72000e-01,-4.24000e+00,3.28000e+01,
2.44000e-01,4.40000e+00,3.44000e+01,
2.40000e-01,4.40000e+00,3.44000e+01,
1.72000e-01,-4.40000e+00,3.28000e+01,
1.80000e-01,-4.32000e+00,3.44000e+01,
2.48000e-01,4.40000e+00,3.28000e+01,
2.40000e-01,4.40000e+00,3.44000e+01,
1.72000e-01,-4.40000e+00,3.28000e+01,
2.40000e-01,4.40000e+00,3.28000e+01,
1.76000e-01,-4.32000e+00,3.44000e+01,
2.44000e-01,4.40000e+00,3.44000e+01,
1.72000e-01,-4.40000e+00,3.28000e+01,
2.40000e-01,-4.24000e+00,3.28000e+01,
1.72000e-01,4.40000e+00,3.44000e+01,
2.36000e-01,4.40000e+00,3.28000e+01,
1.68000e-01,-4.32000e+00,3.44000e+01,
2.32000e-01,4.40000e+00,3.28000e+01,
1.68000e-01,-4.32000e+00,3.44000e+01,
2.28000e-01,4.40000e+00,3.28000e+01,
1.56000e-01,-4.32000e+00,3.44000e+01,
1.56000e-01,4.40000e+00,3.28000e+01,
2.28000e-01,-4.40000e+00,3.44000e+01,
2.24000e-01,-4.24000e+00,3.28000e+01,
1.56000e-01,4.40000e+00,3.44000e+01,
1.44000e-01,-4.24000e+00,3.28000e+01,
2.20000e-01,4.40000e+00,3.44000e+01,
2.16000e-01,-4.32000e+00,3.28000e+01,
1.44000e-01,4.40000e+00,3.44000e+01,
2.04000e-01,4.40000e+00,3.28000e+01,
1.32000e-01,-4.32000e+00,3.44000e+01,
1.32000e-01,4.40000e+00,3.28000e+01,
2.00000e-01,-4.32000e+00,3.44000e+01,
1.32000e-01,4.40000e+00,3.28000e+01,
2.04000e-01,-4.32000e+00,3.44000e+01,
1.36000e-01,-4.32000e+00,3.28000e+01,
2.00000e-01,4.40000e+00,3.44000e+01,
2.00000e-01,-4.32000e+00,3.28000e+01,
1.32000e-01,4.40000e+00,3.44000e+01,
2.00000e-01,-4.24000e+00,3.44000e+01,
1.32000e-01,4.40000e+00,3.28000e+01,
1.32000e-01,-4.24000e+00,3.28000e+01,
2.00000e-01,4.40000e+00,3.44000e+01,
1.24000e-01,4.40000e+00,3.44000e+01,
1.96000e-01,-4.32000e+00,3.28000e+01,
1.28000e-01,4.40000e+00,3.44000e+01,
1.96000e-01,-4.40000e+00,3.28000e+01,
1.32000e-01,4.40000e+00,3.28000e+01,
2.00000e-01,-4.40000e+00,3.44000e+01,
1.92000e-01,4.40000e+00,3.28000e+01,
1.28000e-01,-4.24000e+00,3.44000e+01,
1.24000e-01,4.40000e+00,3.28000e+01,
1.84000e-01,-4.32000e+00,3.44000e+01,
1.76000e-01,-4.24000e+00,3.28000e+01,
1.12000e-01,4.40000e+00,3.44000e+01,
1.00000e-01,4.40000e+00,3.44000e+01,
1.76000e-01,-4.32000e+00,3.28000e+01,
1.60000e-01,4.40000e+00,3.28000e+01,
8.80000e-02,-4.32000e+00,3.44000e+01,
1.56000e-01,4.40000e+00,3.28000e+01,
9.20000e-02,-4.32000e+00,3.44000e+01,
1.52000e-01,-4.24000e+00,3.44000e+01,
8.40000e-02,4.40000e+00,3.28000e+01,
8.40000e-02,4.40000e+00,3.28000e+01,
1.44000e-01,-4.40000e+00,3.44000e+01,
7.60000e-02,4.40000e+00,3.28000e+01,
1.44000e-01,-4.24000e+00,3.44000e+01,
7.20000e-02,4.40000e+00,3.28000e+01,
1.36000e-01,-4.32000e+00,3.44000e+01,
1.32000e-01,-4.24000e+00,3.28000e+01,
6.40000e-02,4.40000e+00,3.44000e+01,
1.28000e-01,4.40000e+00,3.44000e+01,
6.40000e-02,-4.24000e+00,3.28000e+01,
6.40000e-02,4.40000e+00,3.28000e+01,
1.40000e-01,-4.32000e+00,3.44000e+01,
1.28000e-01,-4.24000e+00,3.28000e+01,
6.40000e-02,4.40000e+00,3.44000e+01,
1.28000e-01,4.40000e+00,3.44000e+01,
6.40000e-02,-4.32000e+00,3.28000e+01,
1.28000e-01,4.40000e+00,3.44000e+01,
6.40000e-02,-4.32000e+00,3.28000e+01,
