NewFile28.csv

CH1,CH2,CH3,Start,Increment,
1.80000e-01,-5.04000e+00,3.44000e+01,
2.20000e-01,5.12000e+00,3.28000e+01,
1.80000e-01,-5.04000e+00,3.28000e+01,
2.24000e-01,5.12000e+00,3.44000e+01,
2.20000e-01,-5.04000e+00,3.44000e+01,
1.72000e-01,5.12000e+00,3.28000e+01,
1.80000e-01,-5.04000e+00,3.28000e+01,
2.20000e-01,5.12000e+00,3.44000e+01,
2.20000e-01,-5.04000e+00,3.44000e+01,
1.76000e-01,5.12000e+00,3.28000e+01,
2.20000e-01,-5.04000e+00,3.28000e+01,
1.76000e-01,5.12000e+00,3.44000e+01,
1.72000e-01,-5.04000e+00,3.44000e+01,
2.16000e-01,5.12000e+00,3.28000e+01,
2.16000e-01,-5.04000e+00,3.28000e+01,
1.72000e-01,5.12000e+00,3.44000e+01,
1.72000e-01,-5.04000e+00,3.44000e+01,
2.16000e-01,5.12000e+00,3.28000e+01,
1.72000e-01,5.12000e+00,3.44000e+01,
2.16000e-01,-5.04000e+00,3.28000e+01,
2.16000e-01,5.12000e+00,3.44000e+01,
1.72000e-01,-5.04000e+00,3.28000e+01,
1.80000e-01,-5.04000e+00,3.44000e+01,
2.16000e-01,5.12000e+00,3.28000e+01,
1.80000e-01,-5.04000e+00,3.44000e+01,
2.24000e-01,5.12000e+00,3.28000e+01,
2.24000e-01,-5.04000e+00,3.44000e+01,
1.80000e-01,5.12000e+00,3.28000e+01,
2.20000e-01,5.12000e+00,3.44000e+01,
1.80000e-01,-5.04000e+00,3.28000e+01,
2.20000e-01,5.04000e+00,3.44000e+01,
1.76000e-01,-5.04000e+00,3.28000e+01,
1.80000e-01,5.12000e+00,3.28000e+01,
2.24000e-01,-5.04000e+00,3.44000e+01,
1.80000e-01,-5.04000e+00,3.44000e+01,
2.24000e-01,5.12000e+00,3.28000e+01,
1.84000e-01,-5.04000e+00,3.44000e+01,
2.24000e-01,5.12000e+00,3.28000e+01,
1.84000e-01,-5.04000e+00,3.28000e+01,
2.24000e-01,5.12000e+00,3.44000e+01,
1.80000e-01,-5.04000e+00,3.28000e+01,
2.24000e-01,5.12000e+00,3.44000e+01,
1.84000e-01,-5.04000e+00,3.28000e+01,
2.24000e-01,5.12000e+00,3.44000e+01,
1.80000e-01,-5.04000e+00,3.44000e+01,
2.32000e-01,5.12000e+00,3.28000e+01,
1.84000e-01,-5.04000e+00,3.44000e+01,
2.28000e-01,5.12000e+00,3.28000e+01,
2.24000e-01,-5.04000e+00,3.44000e+01,
1.80000e-01,5.12000e+00,3.28000e+01,
2.24000e-01,-5.04000e+00,3.44000e+01,
1.80000e-01,5.12000e+00,3.28000e+01,
1.80000e-01,-5.04000e+00,3.28000e+01,
2.20000e-01,5.12000e+00,3.44000e+01,
2.20000e-01,-5.04000e+00,3.44000e+01,
1.72000e-01,5.12000e+00,3.28000e+01,
2.20000e-01,5.12000e+00,3.44000e+01,
1.80000e-01,-5.04000e+00,3.28000e+01,
1.80000e-01,-5.04000e+00,3.44000e+01,
2.28000e-01,5.12000e+00,3.28000e+01,
1.76000e-01,-5.04000e+00,3.44000e+01,
2.24000e-01,5.12000e+00,3.28000e+01,
2.24000e-01,5.12000e+00,3.44000e+01,
1.80000e-01,-5.04000e+00,3.28000e+01,
2.24000e-01,5.12000e+00,3.44000e+01,
1.80000e-01,-5.04000e+00,3.28000e+01,
1.84000e-01,-5.04000e+00,3.44000e+01,
2.24000e-01,5.12000e+00,3.28000e+01,
2.24000e-01,-5.04000e+00,3.44000e+01,
1.80000e-01,5.12000e+00,3.28000e+01,
1.80000e-01,-5.04000e+00,3.44000e+01,
2.24000e-01,5.12000e+00,3.28000e+01,
1.80000e-01,-5.04000e+00,3.44000e+01,
2.20000e-01,5.12000e+00,3.28000e+01,
1.80000e-01,-5.04000e+00,3.44000e+01,
2.20000e-01,5.12000e+00,3.28000e+01,
1.80000e-01,-5.04000e+00,3.28000e+01,
2.24000e-01,5.12000e+00,3.44000e+01,
1.80000e-01,-5.04000e+00,3.44000e+01,
2.24000e-01,5.12000e+00,3.28000e+01,
1.80000e-01,5.12000e+00,3.28000e+01,
2.24000e-01,-5.04000e+00,3.44000e+01,
1.80000e-01,-5.04000e+00,3.28000e+01,
2.28000e-01,5.12000e+00,3.44000e+01,
1.84000e-01,5.12000e+00,3.44000e+01,
2.28000e-01,-5.04000e+00,3.28000e+01,
2.24000e-01,-5.04000e+00,3.44000e+01,
1.84000e-01,5.12000e+00,3.28000e+01,
2.28000e-01,-5.04000e+00,3.44000e+01,
1.84000e-01,5.12000e+00,3.28000e+01,
1.80000e-01,-5.04000e+00,3.44000e+01,
2.24000e-01,5.12000e+00,3.28000e+01,
1.80000e-01,5.12000e+00,3.44000e+01,
2.20000e-01,-5.04000e+00,3.28000e+01,
1.72000e-01,5.12000e+00,3.44000e+01,
2.20000e-01,-5.04000e+00,3.28000e+01,
2.16000e-01,5.12000e+00,3.28000e+01,
1.72000e-01,-5.04000e+00,3.44000e+01,
2.20000e-01,5.12000e+00,3.44000e+01,
1.72000e-01,-5.04000e+00,3.28000e+01,
1.72000e-01,5.12000e+00,3.44000e+01,
2.24000e-01,-5.04000e+00,3.28000e+01,
1.80000e-01,5.12000e+00,3.28000e+01,
2.24000e-01,-5.04000e+00,3.44000e+01,
1.84000e-01,-5.04000e+00,3.44000e+01,
2.24000e-01,5.20000e+00,3.28000e+01,
1.84000e-01,-5.04000e+00,3.44000e+01,
2.24000e-01,5.12000e+00,-8.00000e-01,
2.24000e-01,5.12000e+00,3.28000e+01,
1.84000e-01,-5.04000e+00,3.44000e+01,
2.24000e-01,5.12000e+00,3.44000e+01,
1.80000e-01,-5.04000e+00,3.28000e+01,
1.80000e-01,5.12000e+00,3.44000e+01,
2.24000e-01,-5.04000e+00,3.28000e+01,
2.24000e-01,5.12000e+00,3.28000e+01,
1.80000e-01,-5.04000e+00,3.44000e+01,
1.80000e-01,-5.04000e+00,3.44000e+01,
2.24000e-01,5.12000e+00,3.28000e+01,
1.80000e-01,5.12000e+00,3.28000e+01,
2.20000e-01,-5.04000e+00,3.44000e+01,
1.80000e-01,5.12000e+00,3.44000e+01,
2.24000e-01,-5.04000e+00,3.28000e+01,
1.84000e-01,5.12000e+00,3.28000e+01,
2.28000e-01,-5.04000e+00,3.44000e+01,
1.84000e-01,-5.04000e+00,3.44000e+01,
2.24000e-01,5.12000e+00,3.28000e+01,
1.84000e-01,5.12000e+00,3.44000e+01,
2.28000e-01,-5.04000e+00,3.28000e+01,
1.84000e-01,-5.04000e+00,3.28000e+01,
2.24000e-01,5.12000e+00,3.44000e+01,
1.80000e-01,-5.04000e+00,3.28000e+01,
2.24000e-01,5.12000e+00,3.44000e+01,
2.20000e-01,5.12000e+00,3.44000e+01,
1.80000e-01,-5.04000e+00,3.28000e+01,
2.16000e-01,5.12000e+00,3.44000e+01,
1.72000e-01,-5.04000e+00,3.28000e+01,
1.72000e-01,5.12000e+00,3.44000e+01,
2.24000e-01,-5.04000e+00,3.28000e+01,
1.72000e-01,-5.04000e+00,3.44000e+01,
2.20000e-01,5.20000e+00,3.28000e+01,
1.76000e-01,5.12000e+00,3.44000e+01,
2.24000e-01,-5.04000e+00,3.28000e+01,
2.24000e-01,5.12000e+00,3.44000e+01,
1.80000e-01,-5.04000e+00,3.28000e+01,
1.80000e-01,5.12000e+00,3.44000e+01,
2.24000e-01,-5.04000e+00,3.28000e+01,
2.24000e-01,5.12000e+00,3.28000e+01,
1.80000e-01,-5.04000e+00,3.44000e+01,
1.80000e-01,5.12000e+00,3.28000e+01,
2.28000e-01,-5.04000e+00,3.44000e+01,
2.24000e-01,5.12000e+00,3.44000e+01,
1.84000e-01,-5.04000e+00,3.28000e+01,
2.24000e-01,5.12000e+00,3.44000e+01,
1.84000e-01,-4.96000e+00,3.28000e+01,
2.24000e-01,5.12000e+00,3.44000e+01,
1.84000e-01,-5.04000e+00,3.28000e+01,
1.84000e-01,-5.04000e+00,3.44000e+01,
2.24000e-01,5.12000e+00,3.28000e+01,
2.24000e-01,5.12000e+00,3.44000e+01,
1.84000e-01,-5.04000e+00,3.28000e+01,
1.80000e-01,-5.04000e+00,3.28000e+01,
2.24000e-01,5.12000e+00,3.44000e+01,
2.24000e-01,-5.04000e+00,3.44000e+01,
1.80000e-01,5.12000e+00,3.28000e+01,
1.80000e-01,5.12000e+00,3.28000e+01,
2.24000e-01,-5.04000e+00,3.44000e+01,
1.84000e-01,-5.04000e+00,3.44000e+01,
2.24000e-01,5.12000e+00,3.28000e+01,
1.80000e-01,5.12000e+00,3.44000e+01,
2.24000e-01,-5.04000e+00,3.28000e+01,
2.24000e-01,-5.04000e+00,3.44000e+01,
1.80000e-01,5.12000e+00,3.28000e+01,
1.80000e-01,5.12000e+00,3.28000e+01,
2.20000e-01,-5.04000e+00,3.44000e+01,
2.20000e-01,-5.04000e+00,3.44000e+01,
1.72000e-01,5.12000e+00,3.28000e+01,
1.80000e-01,5.12000e+00,3.44000e+01,
2.20000e-01,-5.04000e+00,3.28000e+01,
2.20000e-01,-5.04000e+00,3.28000e+01,
1.68000e-01,5.12000e+00,3.44000e+01,
1.80000e-01,5.12000e+00,3.44000e+01,
2.20000e-01,-5.04000e+00,3.28000e+01,
2.24000e-01,5.12000e+00,3.44000e+01,
1.80000e-01,-5.04000e+00,3.28000e+01,
1.80000e-01,-5.04000e+00,3.44000e+01,
2.24000e-01,5.12000e+00,3.28000e+01,
1.80000e-01,5.12000e+00,3.28000e+01,
2.24000e-01,-5.04000e+00,3.44000e+01,
1.84000e-01,5.12000e+00,3.44000e+01,
2.24000e-01,-5.04000e+00,3.28000e+01,
2.24000e-01,5.12000e+00,3.44000e+01,
1.80000e-01,-5.04000e+00,3.28000e+01,
1.80000e-01,5.12000e+00,3.28000e+01,
2.24000e-01,-5.04000e+00,3.44000e+01,
1.80000e-01,5.12000e+00,3.44000e+01,
2.20000e-01,-5.04000e+00,3.28000e+01,
2.20000e-01,5.12000e+00,3.28000e+01,
1.80000e-01,-5.04000e+00,3.44000e+01,
1.80000e-01,5.12000e+00,3.28000e+01,
2.24000e-01,-5.04000e+00,3.44000e+01,
1.80000e-01,5.12000e+00,3.28000e+01,
2.20000e-01,-5.04000e+00,3.44000e+01,
1.80000e-01,5.12000e+00,3.28000e+01,
2.24000e-01,-5.04000e+00,3.44000e+01,
2.24000e-01,-5.04000e+00,3.28000e+01,
1.80000e-01,5.12000e+00,3.44000e+01,
2.20000e-01,-5.04000e+00,3.28000e+01,
1.80000e-01,5.12000e+00,3.44000e+01,
1.80000e-01,-5.04000e+00,3.28000e+01,
2.24000e-01,5.12000e+00,3.44000e+01,
2.20000e-01,5.12000e+00,3.44000e+01,
1.72000e-01,-5.04000e+00,3.28000e+01,
2.16000e-01,-5.04000e+00,3.28000e+01,
1.72000e-01,5.12000e+00,3.44000e+01,
1.72000e-01,-4.96000e+00,3.44000e+01,
2.16000e-01,5.12000e+00,3.28000e+01,
2.20000e-01,-5.04000e+00,3.28000e+01,
1.72000e-01,5.12000e+00,3.44000e+01,
1.72000e-01,-5.04000e+00,3.28000e+01,
2.24000e-01,5.12000e+00,3.44000e+01,
1.80000e-01,5.12000e+00,3.28000e+01,
2.24000e-01,-5.04000e+00,3.44000e+01,
2.24000e-01,-5.04000e+00,3.44000e+01,
1.72000e-01,5.12000e+00,3.28000e+01,
1.80000e-01,5.12000e+00,3.28000e+01,
2.24000e-01,-5.04000e+00,3.44000e+01,
2.24000e-01,5.12000e+00,3.28000e+01,
1.80000e-01,-5.04000e+00,3.44000e+01,
1.84000e-01,-4.96000e+00,3.44000e+01,
2.24000e-01,5.12000e+00,3.28000e+01,
2.24000e-01,-5.04000e+00,3.44000e+01,
1.80000e-01,5.12000e+00,3.28000e+01,
1.80000e-01,-4.96000e+00,3.44000e+01,
2.20000e-01,5.12000e+00,3.28000e+01,
2.16000e-01,-5.04000e+00,3.28000e+01,
1.72000e-01,5.12000e+00,3.44000e+01,
2.16000e-01,5.12000e+00,3.44000e+01,
1.76000e-01,-5.04000e+00,3.28000e+01,
1.72000e-01,-5.04000e+00,3.28000e+01,
2.24000e-01,5.12000e+00,3.44000e+01,
1.72000e-01,-5.04000e+00,3.28000e+01,
2.20000e-01,5.12000e+00,3.44000e+01,
1.80000e-01,5.12000e+00,3.44000e+01,
2.24000e-01,-5.04000e+00,3.28000e+01,
1.80000e-01,5.12000e+00,3.44000e+01,
2.24000e-01,-5.04000e+00,3.28000e+01,
1.80000e-01,5.12000e+00,3.44000e+01,
2.16000e-01,-5.04000e+00,3.28000e+01,
2.20000e-01,-5.04000e+00,3.28000e+01,
1.72000e-01,5.12000e+00,3.44000e+01,
1.72000e-01,-5.04000e+00,3.28000e+01,
2.16000e-01,5.12000e+00,3.44000e+01,
2.12000e-01,-5.04000e+00,3.44000e+01,
1.72000e-01,5.12000e+00,3.28000e+01,
1.72000e-01,-5.04000e+00,3.44000e+01,
2.16000e-01,5.12000e+00,3.28000e+01,
2.12000e-01,-5.04000e+00,3.44000e+01,
1.72000e-01,5.12000e+00,3.28000e+01,
2.12000e-01,5.12000e+00,3.44000e+01,
1.72000e-01,-5.04000e+00,3.28000e+01,
1.72000e-01,-5.04000e+00,3.44000e+01,
2.20000e-01,5.12000e+00,3.28000e+01,
1.76000e-01,5.12000e+00,3.28000e+01,
2.20000e-01,-5.04000e+00,3.44000e+01,
1.80000e-01,5.12000e+00,3.44000e+01,
2.24000e-01,-5.04000e+00,3.28000e+01,
1.80000e-01,5.12000e+00,3.44000e+01,
2.24000e-01,-5.04000e+00,3.28000e+01,
1.80000e-01,-5.04000e+00,3.44000e+01,
2.24000e-01,5.12000e+00,3.28000e+01,
2.24000e-01,-4.96000e+00,3.28000e+01,
1.80000e-01,5.12000e+00,3.44000e+01,
1.80000e-01,5.12000e+00,3.44000e+01,
2.20000e-01,-5.04000e+00,3.28000e+01,
2.20000e-01,5.12000e+00,3.44000e+01,
1.72000e-01,-5.04000e+00,3.28000e+01,
2.12000e-01,5.12000e+00,3.28000e+01,
1.72000e-01,-5.04000e+00,3.44000e+01,
1.72000e-01,-5.04000e+00,3.44000e+01,
2.16000e-01,5.12000e+00,3.28000e+01,
1.72000e-01,5.12000e+00,3.44000e+01,
2.20000e-01,-5.04000e+00,3.28000e+01,
2.24000e-01,5.12000e+00,3.28000e+01,
1.76000e-01,-5.04000e+00,3.44000e+01,
1.72000e-01,-5.04000e+00,3.44000e+01,
2.20000e-01,5.12000e+00,3.28000e+01,
1.80000e-01,5.12000e+00,3.44000e+01,
2.24000e-01,-5.04000e+00,3.28000e+01,
2.20000e-01,5.12000e+00,3.44000e+01,
1.72000e-01,-5.04000e+00,3.28000e+01,
2.24000e-01,5.12000e+00,3.28000e+01,
1.72000e-01,-5.04000e+00,3.44000e+01,
2.16000e-01,5.12000e+00,3.28000e+01,
1.72000e-01,-5.04000e+00,3.44000e+01,
2.20000e-01,-5.04000e+00,3.28000e+01,
1.72000e-01,5.12000e+00,3.44000e+01,
1.72000e-01,5.12000e+00,3.28000e+01,
2.16000e-01,-5.04000e+00,3.44000e+01,
1.72000e-01,-5.04000e+00,3.28000e+01,
2.24000e-01,5.12000e+00,3.44000e+01,
1.80000e-01,-5.04000e+00,3.44000e+01,
2.24000e-01,5.12000e+00,3.28000e+01,
2.32000e-01,5.12000e+00,3.44000e+01,
1.80000e-01,-5.04000e+00,3.28000e+01,
2.32000e-01,-5.04000e+00,3.44000e+01,
1.80000e-01,5.12000e+00,3.28000e+01,
1.80000e-01,-5.04000e+00,3.44000e+01,
2.28000e-01,5.12000e+00,3.28000e+01,
1.84000e-01,-5.04000e+00,3.44000e+01,
2.32000e-01,5.12000e+00,3.28000e+01,
2.24000e-01,-5.04000e+00,3.44000e+01,
1.84000e-01,5.12000e+00,3.28000e+01,
1.84000e-01,5.12000e+00,3.44000e+01,
2.28000e-01,-5.04000e+00,3.28000e+01,
1.84000e-01,-5.04000e+00,3.28000e+01,
2.28000e-01,5.12000e+00,3.44000e+01,
1.84000e-01,-5.04000e+00,3.28000e+01,
2.24000e-01,5.12000e+00,3.44000e+01,
2.24000e-01,5.12000e+00,3.44000e+01,
1.80000e-01,-5.04000e+00,3.28000e+01,
1.80000e-01,5.12000e+00,3.44000e+01,
2.24000e-01,-5.04000e+00,3.28000e+01,
1.80000e-01,-5.04000e+00,3.28000e+01,
2.28000e-01,5.12000e+00,3.44000e+01,
2.32000e-01,-5.04000e+00,3.44000e+01,
1.80000e-01,5.12000e+00,3.28000e+01,
1.84000e-01,5.12000e+00,3.44000e+01,
2.24000e-01,-5.04000e+00,3.28000e+01,
1.84000e-01,-5.04000e+00,3.44000e+01,
2.24000e-01,5.12000e+00,3.28000e+01,
1.80000e-01,5.12000e+00,3.44000e+01,
2.28000e-01,-5.04000e+00,3.28000e+01,
1.80000e-01,-4.96000e+00,3.28000e+01,
2.24000e-01,5.12000e+00,3.44000e+01,
2.16000e-01,5.12000e+00,3.44000e+01,
1.80000e-01,-5.04000e+00,3.28000e+01,
1.80000e-01,5.12000e+00,3.44000e+01,
2.20000e-01,-5.04000e+00,3.28000e+01,
2.24000e-01,5.12000e+00,3.28000e+01,
1.76000e-01,-5.04000e+00,3.44000e+01,
2.24000e-01,-5.04000e+00,3.44000e+01,
1.80000e-01,5.12000e+00,3.28000e+01,
1.80000e-01,-5.04000e+00,3.28000e+01,
2.24000e-01,5.12000e+00,3.44000e+01,
1.84000e-01,-5.04000e+00,3.44000e+01,
2.28000e-01,5.12000e+00,3.28000e+01,
2.32000e-01,-5.04000e+00,3.28000e+01,
1.84000e-01,5.20000e+00,3.44000e+01,
1.80000e-01,-4.96000e+00,3.28000e+01,
2.24000e-01,5.12000e+00,3.44000e+01,
1.80000e-01,5.12000e+00,3.44000e+01,
2.24000e-01,-5.04000e+00,3.28000e+01,
1.80000e-01,-5.04000e+00,3.44000e+01,
2.28000e-01,5.12000e+00,3.28000e+01,
2.24000e-01,5.12000e+00,3.44000e+01,
1.80000e-01,-5.04000e+00,3.28000e+01,
1.80000e-01,-5.04000e+00,3.44000e+01,
2.24000e-01,5.12000e+00,3.28000e+01,
1.80000e-01,5.12000e+00,3.28000e+01,
2.24000e-01,-5.04000e+00,3.44000e+01,
2.24000e-01,5.12000e+00,3.44000e+01,
1.80000e-01,-5.04000e+00,3.28000e+01,
2.24000e-01,5.12000e+00,3.28000e+01,
1.84000e-01,-5.04000e+00,3.44000e+01,
1.84000e-01,-5.04000e+00,3.44000e+01,
2.24000e-01,5.12000e+00,3.28000e+01,
2.28000e-01,5.12000e+00,3.44000e+01,
1.80000e-01,-5.04000e+00,3.28000e+01,
1.80000e-01,-5.04000e+00,3.44000e+01,
2.24000e-01,5.12000e+00,3.28000e+01,
2.20000e-01,-5.04000e+00,3.28000e+01,
1.80000e-01,5.12000e+00,3.44000e+01,
2.20000e-01,-5.04000e+00,3.44000e+01,
1.80000e-01,5.12000e+00,3.28000e+01,
1.80000e-01,-5.04000e+00,3.28000e+01,
2.24000e-01,5.12000e+00,3.44000e+01,
1.80000e-01,-5.04000e+00,3.28000e+01,
2.20000e-01,5.12000e+00,3.44000e+01,
1.76000e-01,5.12000e+00,3.28000e+01,
2.24000e-01,-5.04000e+00,3.44000e+01,
1.80000e-01,5.12000e+00,3.44000e+01,
2.24000e-01,-5.04000e+00,3.28000e+01,
1.80000e-01,-5.04000e+00,3.28000e+01,
2.24000e-01,5.12000e+00,3.44000e+01,
1.84000e-01,-5.04000e+00,3.44000e+01,
2.24000e-01,5.12000e+00,3.28000e+01,
1.84000e-01,5.12000e+00,3.28000e+01,
2.28000e-01,-5.04000e+00,3.44000e+01,
1.80000e-01,5.12000e+00,3.28000e+01,
2.24000e-01,-5.04000e+00,3.44000e+01,
2.24000e-01,5.12000e+00,3.28000e+01,
1.80000e-01,-5.04000e+00,3.44000e+01,
1.84000e-01,5.12000e+00,3.44000e+01,
2.24000e-01,-5.04000e+00,3.28000e+01,
1.84000e-01,-5.04000e+00,3.44000e+01,
2.24000e-01,5.12000e+00,3.28000e+01,
2.20000e-01,-5.04000e+00,3.28000e+01,
1.80000e-01,5.12000e+00,3.44000e+01,
2.24000e-01,-5.04000e+00,3.44000e+01,
1.80000e-01,5.12000e+00,3.28000e+01,
2.20000e-01,-5.04000e+00,3.28000e+01,
1.80000e-01,5.12000e+00,3.44000e+01,
1.80000e-01,-5.04000e+00,3.28000e+01,
2.24000e-01,5.12000e+00,3.44000e+01,
2.24000e-01,5.12000e+00,3.44000e+01,
1.80000e-01,-5.04000e+00,3.28000e+01,
2.24000e-01,-5.04000e+00,3.28000e+01,
1.80000e-01,5.12000e+00,3.44000e+01,
2.24000e-01,5.12000e+00,3.28000e+01,
1.80000e-01,-5.04000e+00,3.44000e+01,
1.80000e-01,-5.04000e+00,3.44000e+01,
2.24000e-01,5.12000e+00,3.28000e+01,
1.80000e-01,-5.04000e+00,3.28000e+01,
2.24000e-01,5.12000e+00,3.44000e+01,
2.20000e-01,-5.04000e+00,3.28000e+01,
1.80000e-01,5.12000e+00,3.44000e+01,
2.24000e-01,-5.04000e+00,3.44000e+01,
1.72000e-01,5.12000e+00,3.28000e+01,
1.80000e-01,-5.04000e+00,3.44000e+01,
2.24000e-01,5.12000e+00,3.28000e+01,
1.80000e-01,5.12000e+00,3.44000e+01,
2.20000e-01,-5.04000e+00,3.28000e+01,
2.24000e-01,-5.04000e+00,3.44000e+01,
1.80000e-01,5.12000e+00,3.28000e+01,
2.24000e-01,-5.04000e+00,3.44000e+01,
1.84000e-01,5.12000e+00,3.28000e+01,
1.84000e-01,5.12000e+00,3.44000e+01,
2.32000e-01,-5.04000e+00,3.28000e+01,
2.24000e-01,-5.04000e+00,3.44000e+01,
1.80000e-01,5.12000e+00,3.28000e+01,
2.24000e-01,-5.04000e+00,3.28000e+01,
1.80000e-01,5.12000e+00,3.44000e+01,
1.80000e-01,5.12000e+00,3.44000e+01,
2.24000e-01,-5.04000e+00,3.28000e+01,
1.80000e-01,5.12000e+00,3.44000e+01,
2.20000e-01,-5.04000e+00,3.28000e+01,
1.80000e-01,5.12000e+00,3.28000e+01,
2.20000e-01,-5.04000e+00,3.44000e+01,
2.20000e-01,5.12000e+00,3.44000e+01,
1.72000e-01,-5.04000e+00,3.28000e+01,
2.24000e-01,-5.04000e+00,3.28000e+01,
1.80000e-01,5.12000e+00,3.44000e+01,
2.20000e-01,-5.04000e+00,3.28000e+01,
1.80000e-01,5.20000e+00,3.44000e+01,
2.24000e-01,5.12000e+00,3.44000e+01,
1.80000e-01,-5.04000e+00,3.28000e+01,
2.20000e-01,-5.04000e+00,3.28000e+01,
1.76000e-01,5.12000e+00,3.44000e+01,
2.20000e-01,-5.04000e+00,3.44000e+01,
1.80000e-01,5.12000e+00,3.28000e+01,
1.72000e-01,-5.04000e+00,3.28000e+01,
2.24000e-01,5.12000e+00,3.44000e+01,
2.16000e-01,5.12000e+00,3.44000e+01,
1.72000e-01,-5.04000e+00,3.28000e+01,
1.72000e-01,-5.04000e+00,3.44000e+01,
2.20000e-01,5.12000e+00,3.28000e+01,
1.76000e-01,5.12000e+00,3.44000e+01,
2.20000e-01,-5.04000e+00,3.28000e+01,
2.20000e-01,5.12000e+00,3.28000e+01,
1.72000e-01,-5.04000e+00,3.44000e+01,
1.80000e-01,-5.04000e+00,3.44000e+01,
2.24000e-01,5.12000e+00,3.28000e+01,
2.24000e-01,5.12000e+00,3.44000e+01,
1.80000e-01,-5.04000e+00,3.28000e+01,
1.80000e-01,-5.04000e+00,3.28000e+01,
2.28000e-01,5.12000e+00,3.44000e+01,
2.24000e-01,-5.04000e+00,3.28000e+01,
1.80000e-01,5.12000e+00,3.44000e+01,
2.24000e-01,5.12000e+00,3.28000e+01,
1.80000e-01,-5.04000e+00,3.44000e+01,
2.20000e-01,5.12000e+00,3.28000e+01,
1.80000e-01,-5.04000e+00,3.44000e+01,
2.20000e-01,-4.96000e+00,3.44000e+01,
1.72000e-01,5.12000e+00,3.28000e+01,
1.76000e-01,5.12000e+00,3.28000e+01,
2.20000e-01,-5.04000e+00,3.44000e+01,
2.12000e-01,5.12000e+00,3.28000e+01,
1.72000e-01,-5.04000e+00,3.44000e+01,
1.72000e-01,-5.04000e+00,3.44000e+01,
2.16000e-01,5.12000e+00,3.28000e+01,
1.72000e-01,5.12000e+00,3.44000e+01,
2.16000e-01,-5.04000e+00,3.28000e+01,
1.72000e-01,-5.04000e+00,3.44000e+01,
2.16000e-01,5.12000e+00,3.28000e+01,
1.76000e-01,5.12000e+00,3.28000e+01,
2.16000e-01,-5.04000e+00,3.44000e+01,
1.76000e-01,-5.04000e+00,3.44000e+01,
2.16000e-01,5.12000e+00,3.28000e+01,
1.72000e-01,5.12000e+00,3.44000e+01,
2.20000e-01,-5.04000e+00,3.28000e+01,
2.16000e-01,-5.04000e+00,3.28000e+01,
1.72000e-01,5.12000e+00,3.44000e+01,
2.16000e-01,-5.04000e+00,3.44000e+01,
1.72000e-01,5.12000e+00,3.28000e+01,
2.20000e-01,-5.04000e+00,3.44000e+01,
1.72000e-01,5.12000e+00,3.28000e+01,
1.72000e-01,-5.04000e+00,3.44000e+01,
2.20000e-01,5.12000e+00,3.28000e+01,
1.72000e-01,-5.04000e+00,3.44000e+01,
2.16000e-01,5.12000e+00,3.28000e+01,
1.72000e-01,5.12000e+00,3.44000e+01,
2.16000e-01,-5.04000e+00,3.28000e+01,
1.80000e-01,5.12000e+00,3.28000e+01,
2.20000e-01,-5.04000e+00,3.44000e+01,
1.80000e-01,-5.04000e+00,3.28000e+01,
2.20000e-01,5.12000e+00,3.44000e+01,
1.80000e-01,-5.04000e+00,3.44000e+01,
2.20000e-01,5.12000e+00,3.28000e+01,
2.20000e-01,-5.04000e+00,3.44000e+01,
1.72000e-01,5.12000e+00,3.28000e+01,
2.20000e-01,5.12000e+00,3.44000e+01,
1.72000e-01,-5.04000e+00,3.28000e+01,
2.20000e-01,-5.04000e+00,3.28000e+01,
1.72000e-01,5.12000e+00,3.44000e+01,
2.12000e-01,-5.04000e+00,3.44000e+01,
1.68000e-01,5.12000e+00,3.28000e+01,
2.08000e-01,5.12000e+00,3.44000e+01,
1.68000e-01,-5.04000e+00,3.28000e+01,
2.08000e-01,-5.04000e+00,3.44000e+01,
1.60000e-01,5.12000e+00,3.28000e+01,
2.08000e-01,5.12000e+00,3.44000e+01,
1.64000e-01,-5.04000e+00,3.28000e+01,
1.68000e-01,5.12000e+00,3.44000e+01,
2.12000e-01,-5.04000e+00,3.28000e+01,
2.12000e-01,5.12000e+00,3.44000e+01,
1.68000e-01,-5.04000e+00,3.28000e+01,
2.12000e-01,5.12000e+00,3.44000e+01,
1.68000e-01,-5.04000e+00,3.28000e+01,
2.12000e-01,5.12000e+00,3.28000e+01,
1.68000e-01,-5.04000e+00,3.44000e+01,
1.68000e-01,5.12000e+00,3.44000e+01,
2.12000e-01,-5.04000e+00,3.28000e+01,
