NewFile8.csv

CH1,CH2,CH3,Start,Increment,
0.00000e+00,-5.04000e+00,3.44000e+01,
-4.40000e-02,5.12000e+00,3.28000e+01,
8.00000e-03,5.12000e+00,3.28000e+01,
-4.00000e-02,-5.04000e+00,3.44000e+01,
-4.40000e-02,-5.04000e+00,3.28000e+01,
8.00000e-03,5.12000e+00,3.44000e+01,
8.00000e-03,5.04000e+00,3.44000e+01,
-4.40000e-02,-5.04000e+00,3.28000e+01,
-4.00000e-02,-4.96000e+00,3.28000e+01,
8.00000e-03,5.04000e+00,3.44000e+01,
0.00000e+00,5.04000e+00,3.28000e+01,
-4.00000e-02,-5.04000e+00,3.44000e+01,
-4.00000e-02,-4.96000e+00,3.28000e+01,
8.00000e-03,5.12000e+00,3.44000e+01,
-4.40000e-02,5.04000e+00,3.28000e+01,
4.00000e-03,-4.96000e+00,3.44000e+01,
0.00000e+00,-4.96000e+00,3.28000e+01,
-4.40000e-02,5.12000e+00,3.44000e+01,
-4.00000e-02,-4.96000e+00,3.28000e+01,
8.00000e-03,5.04000e+00,3.44000e+01,
8.00000e-03,-4.96000e+00,3.44000e+01,
-4.00000e-02,5.04000e+00,3.28000e+01,
8.00000e-03,-4.96000e+00,3.44000e+01,
-4.40000e-02,5.12000e+00,3.28000e+01,
-4.00000e-02,-4.96000e+00,3.28000e+01,
4.00000e-03,5.12000e+00,3.44000e+01,
-4.00000e-02,-5.04000e+00,3.44000e+01,
8.00000e-03,5.04000e+00,3.28000e+01,
-4.00000e-02,-4.96000e+00,3.28000e+01,
8.00000e-03,5.04000e+00,3.44000e+01,
0.00000e+00,-4.96000e+00,3.44000e+01,
-4.00000e-02,5.04000e+00,3.28000e+01,
-4.00000e-02,-4.96000e+00,3.44000e+01,
8.00000e-03,5.12000e+00,3.28000e+01,
-4.00000e-02,-4.96000e+00,3.28000e+01,
8.00000e-03,5.12000e+00,3.44000e+01,
-4.40000e-02,-4.96000e+00,3.28000e+01,
8.00000e-03,5.04000e+00,3.44000e+01,
8.00000e-03,-4.96000e+00,3.44000e+01,
-4.00000e-02,5.04000e+00,3.28000e+01,
0.00000e+00,-4.96000e+00,3.28000e+01,
-3.60000e-02,5.04000e+00,3.44000e+01,
4.00000e-03,-4.96000e+00,3.28000e+01,
-4.00000e-02,5.04000e+00,3.44000e+01,
-4.00000e-02,-4.96000e+00,3.28000e+01,
8.00000e-03,5.04000e+00,3.44000e+01,
0.00000e+00,-4.96000e+00,3.28000e+01,
-4.00000e-02,4.96000e+00,3.44000e+01,
-4.00000e-02,-4.96000e+00,3.28000e+01,
4.00000e-03,5.04000e+00,3.44000e+01,
-4.40000e-02,-4.96000e+00,3.28000e+01,
8.00000e-03,5.04000e+00,3.44000e+01,
-4.00000e-02,-4.96000e+00,3.28000e+01,
8.00000e-03,5.04000e+00,3.44000e+01,
8.00000e-03,-5.04000e+00,3.28000e+01,
-4.00000e-02,5.12000e+00,3.44000e+01,
8.00000e-03,-4.96000e+00,3.28000e+01,
-4.00000e-02,5.04000e+00,3.44000e+01,
-4.00000e-02,4.96000e+00,3.28000e+01,
8.00000e-03,-4.96000e+00,3.44000e+01,
-4.00000e-02,-4.96000e+00,3.28000e+01,
8.00000e-03,5.04000e+00,3.44000e+01,
-4.00000e-02,-4.96000e+00,3.28000e+01,
8.00000e-03,5.04000e+00,3.44000e+01,
8.00000e-03,-5.04000e+00,3.28000e+01,
-4.00000e-02,5.04000e+00,3.44000e+01,
-4.00000e-02,5.04000e+00,3.44000e+01,
8.00000e-03,-5.04000e+00,3.28000e+01,
8.00000e-03,-4.96000e+00,3.44000e+01,
-4.00000e-02,5.12000e+00,3.28000e+01,
-4.00000e-02,-4.96000e+00,3.28000e+01,
8.00000e-03,5.04000e+00,3.44000e+01,
8.00000e-03,-4.96000e+00,3.28000e+01,
-4.00000e-02,5.12000e+00,3.44000e+01,
8.00000e-03,5.04000e+00,3.28000e+01,
-3.60000e-02,-5.04000e+00,3.44000e+01,
8.00000e-03,-5.04000e+00,3.44000e+01,
-4.00000e-02,5.04000e+00,3.28000e+01,
8.00000e-03,-4.96000e+00,3.44000e+01,
-4.40000e-02,5.04000e+00,3.28000e+01,
-4.40000e-02,-4.96000e+00,3.28000e+01,
1.20000e-02,5.04000e+00,3.44000e+01,
-4.00000e-02,-5.04000e+00,3.28000e+01,
1.20000e-02,5.04000e+00,3.44000e+01,
-3.60000e-02,5.04000e+00,3.28000e+01,
8.00000e-03,-5.04000e+00,3.44000e+01,
-4.40000e-02,5.04000e+00,3.44000e+01,
1.20000e-02,-5.04000e+00,3.28000e+01,
-3.60000e-02,-4.96000e+00,3.28000e+01,
1.20000e-02,5.12000e+00,3.44000e+01,
8.00000e-03,5.04000e+00,3.28000e+01,
-3.60000e-02,-5.04000e+00,3.44000e+01,
-3.60000e-02,-5.04000e+00,8.00000e-01,
1.20000e-02,5.12000e+00,-8.00000e-01,
8.00000e-03,-5.04000e+00,3.28000e+01,
-3.60000e-02,5.12000e+00,3.44000e+01,
8.00000e-03,-5.04000e+00,3.28000e+01,
-3.60000e-02,5.12000e+00,3.44000e+01,
8.00000e-03,5.12000e+00,3.44000e+01,
-3.20000e-02,-5.04000e+00,3.28000e+01,
8.00000e-03,5.12000e+00,3.28000e+01,
-4.00000e-02,-5.12000e+00,3.44000e+01,
-3.60000e-02,5.12000e+00,3.28000e+01,
1.20000e-02,-5.12000e+00,3.44000e+01,
-3.60000e-02,-5.04000e+00,3.28000e+01,
1.20000e-02,5.20000e+00,3.44000e+01,
8.00000e-03,-5.04000e+00,3.28000e+01,
-3.60000e-02,5.12000e+00,3.44000e+01,
-4.00000e-02,-5.04000e+00,3.28000e+01,
1.20000e-02,5.12000e+00,3.44000e+01,
1.20000e-02,5.12000e+00,3.44000e+01,
-3.60000e-02,-5.04000e+00,3.28000e+01,
-3.60000e-02,5.12000e+00,3.28000e+01,
8.00000e-03,-5.04000e+00,3.44000e+01,
-4.00000e-02,-5.04000e+00,3.28000e+01,
8.00000e-03,5.12000e+00,3.44000e+01,
8.00000e-03,-5.04000e+00,3.28000e+01,
-4.00000e-02,5.12000e+00,3.44000e+01,
-3.20000e-02,-5.04000e+00,3.28000e+01,
1.20000e-02,5.12000e+00,3.36000e+01,
8.00000e-03,-5.04000e+00,3.28000e+01,
-3.60000e-02,5.12000e+00,3.44000e+01,
-3.20000e-02,5.12000e+00,3.28000e+01,
8.00000e-03,-5.04000e+00,3.44000e+01,
8.00000e-03,-5.04000e+00,3.28000e+01,
-3.60000e-02,5.12000e+00,3.44000e+01,
-3.60000e-02,5.12000e+00,3.44000e+01,
1.20000e-02,-5.04000e+00,3.28000e+01,
1.20000e-02,5.12000e+00,3.28000e+01,
-3.60000e-02,-5.04000e+00,3.44000e+01,
1.20000e-02,5.12000e+00,3.28000e+01,
-3.60000e-02,-5.04000e+00,3.44000e+01,
8.00000e-03,-5.04000e+00,3.28000e+01,
-3.60000e-02,5.12000e+00,3.44000e+01,
-3.60000e-02,-5.04000e+00,3.28000e+01,
1.20000e-02,5.12000e+00,3.44000e+01,
-3.20000e-02,5.12000e+00,3.28000e+01,
8.00000e-03,-5.04000e+00,3.44000e+01,
8.00000e-03,-5.04000e+00,3.28000e+01,
-3.60000e-02,5.12000e+00,3.44000e+01,
8.00000e-03,-5.04000e+00,3.28000e+01,
-3.60000e-02,5.12000e+00,3.44000e+01,
-3.20000e-02,5.12000e+00,3.28000e+01,
8.00000e-03,-5.04000e+00,3.44000e+01,
-3.20000e-02,-5.04000e+00,3.28000e+01,
8.00000e-03,5.12000e+00,3.44000e+01,
-3.20000e-02,-5.04000e+00,3.28000e+01,
8.00000e-03,5.12000e+00,3.44000e+01,
8.00000e-03,-5.04000e+00,3.44000e+01,
-4.00000e-02,5.12000e+00,3.28000e+01,
8.00000e-03,5.12000e+00,3.28000e+01,
-3.60000e-02,-5.04000e+00,3.44000e+01,
-3.20000e-02,-5.04000e+00,3.44000e+01,
1.20000e-02,5.12000e+00,3.28000e+01,
1.20000e-02,5.12000e+00,3.44000e+01,
-3.20000e-02,-5.04000e+00,3.28000e+01,
-3.20000e-02,-5.04000e+00,3.28000e+01,
1.20000e-02,5.12000e+00,3.44000e+01,
8.00000e-03,-5.04000e+00,3.28000e+01,
-3.20000e-02,5.12000e+00,3.44000e+01,
-3.20000e-02,5.12000e+00,3.28000e+01,
8.00000e-03,-5.04000e+00,3.44000e+01,
8.00000e-03,5.12000e+00,3.28000e+01,
-3.60000e-02,-5.04000e+00,3.44000e+01,
-3.20000e-02,5.12000e+00,3.28000e+01,
1.20000e-02,-5.04000e+00,3.44000e+01,
-3.20000e-02,-5.04000e+00,3.28000e+01,
8.00000e-03,5.12000e+00,3.44000e+01,
-3.20000e-02,-5.04000e+00,3.28000e+01,
1.20000e-02,5.12000e+00,3.44000e+01,
1.20000e-02,5.12000e+00,3.28000e+01,
-3.60000e-02,-5.04000e+00,3.44000e+01,
1.20000e-02,-5.04000e+00,3.28000e+01,
-3.60000e-02,5.12000e+00,3.44000e+01,
8.00000e-03,5.12000e+00,3.28000e+01,
-3.60000e-02,-5.04000e+00,3.44000e+01,
-4.00000e-02,-5.04000e+00,3.28000e+01,
1.20000e-02,5.12000e+00,3.44000e+01,
8.00000e-03,-5.04000e+00,3.28000e+01,
-3.60000e-02,5.12000e+00,3.44000e+01,
-3.20000e-02,-5.04000e+00,3.44000e+01,
1.20000e-02,5.12000e+00,3.28000e+01,
-3.60000e-02,-5.04000e+00,3.28000e+01,
1.20000e-02,5.12000e+00,3.44000e+01,
-3.60000e-02,-5.04000e+00,3.28000e+01,
1.20000e-02,5.12000e+00,3.44000e+01,
1.20000e-02,5.12000e+00,3.44000e+01,
-3.60000e-02,-5.12000e+00,3.28000e+01,
-3.20000e-02,-5.04000e+00,3.28000e+01,
8.00000e-03,5.12000e+00,3.44000e+01,
-3.20000e-02,-5.04000e+00,3.28000e+01,
1.20000e-02,5.12000e+00,3.44000e+01,
-3.20000e-02,-5.04000e+00,3.28000e+01,
1.20000e-02,5.12000e+00,3.44000e+01,
-3.20000e-02,-5.04000e+00,3.28000e+01,
1.20000e-02,5.12000e+00,3.44000e+01,
1.20000e-02,5.12000e+00,3.28000e+01,
-3.20000e-02,-5.04000e+00,3.44000e+01,
8.00000e-03,5.04000e+00,3.28000e+01,
-3.20000e-02,-5.04000e+00,3.44000e+01,
-3.20000e-02,-5.04000e+00,3.28000e+01,
1.20000e-02,5.12000e+00,3.44000e+01,
-3.20000e-02,-5.04000e+00,3.28000e+01,
1.20000e-02,5.12000e+00,3.44000e+01,
-3.20000e-02,5.12000e+00,3.28000e+01,
1.20000e-02,-5.04000e+00,3.44000e+01,
1.20000e-02,-5.04000e+00,3.28000e+01,
-3.60000e-02,5.12000e+00,3.44000e+01,
-3.20000e-02,-5.04000e+00,3.28000e+01,
1.20000e-02,5.12000e+00,3.44000e+01,
-3.60000e-02,-5.04000e+00,3.28000e+01,
1.20000e-02,5.12000e+00,3.44000e+01,
8.00000e-03,-5.04000e+00,3.28000e+01,
-3.20000e-02,5.12000e+00,3.44000e+01,
8.00000e-03,-5.04000e+00,3.28000e+01,
-3.20000e-02,5.12000e+00,3.44000e+01,
1.20000e-02,-5.04000e+00,3.28000e+01,
-3.60000e-02,5.12000e+00,3.44000e+01,
8.00000e-03,5.12000e+00,3.28000e+01,
-3.20000e-02,-5.04000e+00,3.44000e+01,
-3.20000e-02,-5.04000e+00,3.44000e+01,
1.20000e-02,5.12000e+00,3.28000e+01,
-3.20000e-02,5.04000e+00,3.28000e+01,
1.20000e-02,-5.04000e+00,3.44000e+01,
-3.20000e-02,-5.04000e+00,3.28000e+01,
1.20000e-02,5.12000e+00,3.44000e+01,
1.60000e-02,-5.04000e+00,3.28000e+01,
-3.20000e-02,5.12000e+00,3.44000e+01,
-3.20000e-02,-5.04000e+00,3.28000e+01,
1.20000e-02,5.12000e+00,3.44000e+01,
-3.20000e-02,-5.04000e+00,3.28000e+01,
1.20000e-02,5.12000e+00,3.36000e+01,
-3.20000e-02,5.12000e+00,3.28000e+01,
1.20000e-02,-5.04000e+00,3.44000e+01,
-3.20000e-02,5.12000e+00,3.28000e+01,
1.20000e-02,-5.04000e+00,3.44000e+01,
-3.20000e-02,-5.04000e+00,3.28000e+01,
1.20000e-02,5.12000e+00,3.44000e+01,
-3.20000e-02,-5.04000e+00,3.28000e+01,
1.20000e-02,5.12000e+00,3.44000e+01,
1.20000e-02,5.12000e+00,3.28000e+01,
-3.20000e-02,-5.04000e+00,3.44000e+01,
1.20000e-02,-5.04000e+00,3.28000e+01,
-3.60000e-02,5.12000e+00,3.44000e+01,
-3.20000e-02,-5.04000e+00,3.28000e+01,
1.20000e-02,5.12000e+00,3.44000e+01,
1.20000e-02,-5.04000e+00,3.28000e+01,
-3.20000e-02,5.12000e+00,3.44000e+01,
-3.20000e-02,-5.04000e+00,3.28000e+01,
1.20000e-02,5.12000e+00,3.44000e+01,
1.20000e-02,-5.04000e+00,3.28000e+01,
-3.20000e-02,5.12000e+00,3.44000e+01,
-3.60000e-02,-5.04000e+00,3.28000e+01,
1.20000e-02,5.12000e+00,3.44000e+01,
1.20000e-02,-5.04000e+00,3.28000e+01,
-3.20000e-02,5.12000e+00,3.44000e+01,
8.00000e-03,-5.04000e+00,3.28000e+01,
-3.20000e-02,5.12000e+00,3.44000e+01,
-3.20000e-02,-5.04000e+00,3.28000e+01,
1.20000e-02,5.12000e+00,3.44000e+01,
1.20000e-02,-5.04000e+00,3.28000e+01,
-3.20000e-02,5.12000e+00,3.44000e+01,
1.20000e-02,5.12000e+00,3.44000e+01,
-3.20000e-02,-5.04000e+00,3.28000e+01,
1.20000e-02,-5.04000e+00,3.44000e+01,
-3.20000e-02,5.12000e+00,3.28000e+01,
-3.60000e-02,-5.04000e+00,3.28000e+01,
1.20000e-02,5.12000e+00,3.44000e+01,
1.20000e-02,5.12000e+00,3.28000e+01,
-4.00000e-02,-5.04000e+00,3.44000e+01,
-3.60000e-02,-5.04000e+00,3.28000e+01,
1.20000e-02,5.12000e+00,3.44000e+01,
-3.20000e-02,-5.04000e+00,3.28000e+01,
1.20000e-02,5.12000e+00,3.44000e+01,
-3.20000e-02,-5.04000e+00,3.44000e+01,
1.20000e-02,5.12000e+00,3.28000e+01,
1.20000e-02,5.20000e+00,3.28000e+01,
-3.20000e-02,-5.04000e+00,3.44000e+01,
8.00000e-03,-5.04000e+00,3.28000e+01,
-3.20000e-02,5.12000e+00,3.44000e+01,
-3.20000e-02,-5.04000e+00,3.28000e+01,
1.20000e-02,5.20000e+00,3.44000e+01,
-3.20000e-02,-5.04000e+00,3.28000e+01,
1.20000e-02,5.12000e+00,3.44000e+01,
1.20000e-02,-5.04000e+00,3.44000e+01,
-3.20000e-02,5.12000e+00,3.28000e+01,
1.20000e-02,5.12000e+00,3.28000e+01,
-3.20000e-02,-5.04000e+00,3.44000e+01,
-2.80000e-02,-5.04000e+00,3.28000e+01,
1.20000e-02,5.12000e+00,3.44000e+01,
1.20000e-02,5.12000e+00,3.44000e+01,
-3.20000e-02,-5.04000e+00,3.28000e+01,
-3.20000e-02,5.12000e+00,3.44000e+01,
1.20000e-02,-5.12000e+00,3.28000e+01,
1.20000e-02,-5.04000e+00,3.28000e+01,
-3.20000e-02,5.12000e+00,3.44000e+01,
-3.20000e-02,-5.04000e+00,3.28000e+01,
1.20000e-02,5.12000e+00,3.44000e+01,
1.20000e-02,-5.04000e+00,3.28000e+01,
-3.20000e-02,5.12000e+00,3.44000e+01,
-3.20000e-02,5.12000e+00,3.44000e+01,
1.20000e-02,-5.04000e+00,3.28000e+01,
1.20000e-02,-5.04000e+00,3.44000e+01,
-3.20000e-02,5.12000e+00,3.28000e+01,
-3.20000e-02,-5.04000e+00,3.28000e+01,
2.00000e-02,5.12000e+00,3.44000e+01,
2.00000e-02,-5.04000e+00,3.44000e+01,
-3.20000e-02,5.20000e+00,3.28000e+01,
-3.20000e-02,5.12000e+00,3.44000e+01,
1.20000e-02,-5.04000e+00,3.28000e+01,
1.20000e-02,-5.04000e+00,3.28000e+01,
-3.60000e-02,5.12000e+00,3.44000e+01,
-3.20000e-02,-5.04000e+00,3.28000e+01,
1.20000e-02,5.12000e+00,3.44000e+01,
1.20000e-02,-5.04000e+00,3.44000e+01,
-2.80000e-02,5.12000e+00,3.28000e+01,
1.20000e-02,-5.04000e+00,3.28000e+01,
-3.20000e-02,5.12000e+00,3.44000e+01,
1.20000e-02,-5.04000e+00,3.28000e+01,
-3.20000e-02,5.12000e+00,3.44000e+01,
1.20000e-02,-5.04000e+00,3.44000e+01,
-3.20000e-02,5.12000e+00,3.28000e+01,
-3.20000e-02,-5.04000e+00,3.44000e+01,
1.20000e-02,5.12000e+00,3.28000e+01,
1.20000e-02,-5.04000e+00,3.28000e+01,
-3.20000e-02,5.12000e+00,3.44000e+01,
1.20000e-02,5.12000e+00,3.44000e+01,
-3.20000e-02,-5.04000e+00,3.28000e+01,
1.20000e-02,-5.04000e+00,3.44000e+01,
-2.80000e-02,5.12000e+00,3.28000e+01,
1.20000e-02,5.12000e+00,3.28000e+01,
-3.20000e-02,-5.04000e+00,3.44000e+01,
1.20000e-02,-5.04000e+00,3.28000e+01,
-3.20000e-02,5.12000e+00,3.44000e+01,
-3.20000e-02,-5.04000e+00,3.28000e+01,
1.20000e-02,5.12000e+00,3.44000e+01,
-2.80000e-02,-5.04000e+00,3.28000e+01,
1.20000e-02,5.12000e+00,3.44000e+01,
1.20000e-02,-5.04000e+00,3.28000e+01,
-3.20000e-02,5.12000e+00,3.44000e+01,
1.20000e-02,-5.04000e+00,3.28000e+01,
-3.60000e-02,5.12000e+00,3.44000e+01,
-3.20000e-02,-5.04000e+00,3.28000e+01,
1.20000e-02,5.12000e+00,3.44000e+01,
1.20000e-02,-5.04000e+00,3.28000e+01,
-3.20000e-02,5.12000e+00,3.44000e+01,
-3.20000e-02,-5.04000e+00,3.28000e+01,
1.20000e-02,5.12000e+00,3.44000e+01,
-3.20000e-02,-5.04000e+00,3.28000e+01,
1.20000e-02,5.12000e+00,3.44000e+01,
1.20000e-02,-5.04000e+00,3.28000e+01,
-3.20000e-02,5.12000e+00,3.44000e+01,
-3.20000e-02,-5.04000e+00,3.28000e+01,
1.20000e-02,5.12000e+00,3.44000e+01,
1.20000e-02,5.12000e+00,3.44000e+01,
-3.20000e-02,-5.04000e+00,3.28000e+01,
-3.20000e-02,-5.04000e+00,3.28000e+01,
1.20000e-02,5.12000e+00,3.44000e+01,
1.20000e-02,5.12000e+00,3.28000e+01,
-3.20000e-02,-5.04000e+00,3.44000e+01,
-3.20000e-02,-5.04000e+00,3.28000e+01,
1.20000e-02,5.12000e+00,3.44000e+01,
1.20000e-02,-5.04000e+00,3.28000e+01,
-3.20000e-02,5.12000e+00,3.44000e+01,
1.20000e-02,-5.04000e+00,3.28000e+01,
-3.20000e-02,5.12000e+00,3.44000e+01,
1.20000e-02,-5.04000e+00,3.28000e+01,
-3.20000e-02,5.12000e+00,3.44000e+01,
1.20000e-02,5.12000e+00,3.28000e+01,
-3.20000e-02,-5.04000e+00,3.44000e+01,
-3.20000e-02,-5.04000e+00,3.28000e+01,
1.20000e-02,5.12000e+00,3.44000e+01,
1.20000e-02,-5.04000e+00,3.28000e+01,
-3.20000e-02,5.12000e+00,3.44000e+01,
-3.20000e-02,-5.04000e+00,3.36000e+01,
1.20000e-02,5.12000e+00,3.28000e+01,
1.20000e-02,-5.04000e+00,3.28000e+01,
-3.20000e-02,5.12000e+00,3.44000e+01,
-3.20000e-02,-5.04000e+00,3.28000e+01,
1.20000e-02,5.12000e+00,3.44000e+01,
1.20000e-02,5.12000e+00,3.28000e+01,
-3.20000e-02,-5.04000e+00,3.44000e+01,
1.20000e-02,-5.04000e+00,3.28000e+01,
-3.20000e-02,5.12000e+00,3.44000e+01,
-3.20000e-02,-5.04000e+00,3.28000e+01,
2.40000e-02,5.12000e+00,3.36000e+01,
-3.20000e-02,5.12000e+00,3.28000e+01,
1.20000e-02,-5.04000e+00,3.44000e+01,
1.20000e-02,-5.04000e+00,3.28000e+01,
-3.20000e-02,5.12000e+00,3.44000e+01,
1.20000e-02,-5.04000e+00,3.28000e+01,
-3.20000e-02,5.12000e+00,3.44000e+01,
1.20000e-02,-5.04000e+00,3.28000e+01,
-3.20000e-02,5.12000e+00,3.44000e+01,
1.20000e-02,-5.04000e+00,3.28000e+01,
-3.20000e-02,5.12000e+00,3.44000e+01,
-3.20000e-02,-5.04000e+00,3.28000e+01,
1.60000e-02,5.12000e+00,3.44000e+01,
1.20000e-02,-5.04000e+00,3.28000e+01,
-2.80000e-02,5.20000e+00,3.44000e+01,
-3.20000e-02,-5.04000e+00,3.28000e+01,
2.00000e-02,5.12000e+00,3.44000e+01,
2.00000e-02,-5.04000e+00,3.28000e+01,
-3.20000e-02,5.12000e+00,3.44000e+01,
1.20000e-02,-5.04000e+00,3.28000e+01,
-3.20000e-02,5.12000e+00,3.44000e+01,
1.20000e-02,5.12000e+00,3.28000e+01,
-3.20000e-02,-5.12000e+00,3.44000e+01,
-3.20000e-02,5.12000e+00,3.28000e+01,
1.20000e-02,-5.04000e+00,3.44000e+01,
1.20000e-02,-5.04000e+00,3.28000e+01,
-3.20000e-02,5.12000e+00,3.44000e+01,
1.20000e-02,5.12000e+00,3.28000e+01,
-2.80000e-02,-5.04000e+00,3.44000e+01,
1.20000e-02,-5.04000e+00,3.44000e+01,
-2.80000e-02,5.12000e+00,3.28000e+01,
1.20000e-02,-5.04000e+00,3.28000e+01,
-3.20000e-02,5.12000e+00,3.44000e+01,
1.20000e-02,-5.04000e+00,3.28000e+01,
-3.20000e-02,5.12000e+00,3.44000e+01,
1.20000e-02,-5.04000e+00,3.28000e+01,
-2.80000e-02,5.12000e+00,3.44000e+01,
1.20000e-02,5.12000e+00,3.44000e+01,
-2.80000e-02,-5.04000e+00,3.28000e+01,
-3.20000e-02,-5.04000e+00,3.28000e+01,
1.20000e-02,5.12000e+00,3.44000e+01,
-2.80000e-02,-5.04000e+00,3.44000e+01,
1.20000e-02,5.12000e+00,3.28000e+01,
1.20000e-02,-5.04000e+00,3.44000e+01,
-2.80000e-02,5.12000e+00,3.28000e+01,
1.20000e-02,-5.04000e+00,3.28000e+01,
-3.20000e-02,5.12000e+00,3.44000e+01,
-2.80000e-02,-5.04000e+00,3.28000e+01,
1.20000e-02,5.12000e+00,3.44000e+01,
-3.20000e-02,-5.04000e+00,3.28000e+01,
1.20000e-02,5.12000e+00,3.44000e+01,
1.20000e-02,5.12000e+00,3.28000e+01,
-2.80000e-02,-5.04000e+00,3.44000e+01,
1.20000e-02,-5.04000e+00,3.44000e+01,
-3.20000e-02,5.12000e+00,3.28000e+01,
1.20000e-02,-5.04000e+00,3.28000e+01,
-3.20000e-02,5.12000e+00,3.44000e+01,
-3.20000e-02,-5.04000e+00,3.28000e+01,
1.20000e-02,5.12000e+00,3.44000e+01,
1.20000e-02,-5.04000e+00,3.28000e+01,
-3.20000e-02,5.12000e+00,3.44000e+01,
1.20000e-02,-5.04000e+00,3.28000e+01,
-3.20000e-02,5.12000e+00,3.44000e+01,
1.20000e-02,-5.04000e+00,3.44000e+01,
-3.20000e-02,5.12000e+00,3.28000e+01,
-2.80000e-02,-5.04000e+00,3.44000e+01,
1.20000e-02,5.12000e+00,3.28000e+01,
-3.20000e-02,-5.04000e+00,3.28000e+01,
1.20000e-02,5.12000e+00,3.44000e+01,
-3.20000e-02,5.12000e+00,3.28000e+01,
1.20000e-02,-5.04000e+00,3.44000e+01,
1.20000e-02,-5.04000e+00,3.28000e+01,
-3.20000e-02,5.12000e+00,3.44000e+01,
-3.20000e-02,-5.04000e+00,3.28000e+01,
1.20000e-02,5.12000e+00,3.44000e+01,
1.20000e-02,-5.04000e+00,3.28000e+01,
-2.80000e-02,5.12000e+00,3.44000e+01,
-3.20000e-02,-5.04000e+00,3.28000e+01,
1.20000e-02,5.12000e+00,3.44000e+01,
1.20000e-02,5.12000e+00,3.28000e+01,
-3.20000e-02,-5.04000e+00,3.44000e+01,
1.20000e-02,-5.04000e+00,3.28000e+01,
-3.20000e-02,5.12000e+00,3.44000e+01,
1.20000e-02,-5.04000e+00,3.44000e+01,
-3.20000e-02,5.12000e+00,3.28000e+01,
1.20000e-02,-5.04000e+00,3.28000e+01,
-3.20000e-02,5.12000e+00,3.44000e+01,
1.20000e-02,-5.04000e+00,3.28000e+01,
-3.20000e-02,5.12000e+00,3.44000e+01,
1.20000e-02,5.12000e+00,3.28000e+01,
-3.20000e-02,-5.04000e+00,3.44000e+01,
1.20000e-02,-5.12000e+00,3.44000e+01,
-3.20000e-02,5.12000e+00,3.28000e+01,
1.20000e-02,-5.04000e+00,3.28000e+01,
-3.20000e-02,5.12000e+00,3.44000e+01,
1.20000e-02,-5.04000e+00,3.44000e+01,
-3.20000e-02,5.12000e+00,3.28000e+01,
-3.20000e-02,-5.04000e+00,3.28000e+01,
1.60000e-02,5.12000e+00,3.44000e+01,
1.20000e-02,5.12000e+00,3.28000e+01,
-3.20000e-02,-5.04000e+00,3.44000e+01,
1.20000e-02,-5.04000e+00,3.28000e+01,
-3.20000e-02,5.12000e+00,3.44000e+01,
1.20000e-02,-5.04000e+00,3.28000e+01,
-3.20000e-02,5.12000e+00,3.44000e+01,
1.20000e-02,5.12000e+00,3.28000e+01,
-3.20000e-02,-5.04000e+00,3.44000e+01,
1.20000e-02,-5.04000e+00,3.28000e+01,
-3.20000e-02,5.12000e+00,3.44000e+01,
-3.20000e-02,-5.04000e+00,3.28000e+01,
1.60000e-02,5.12000e+00,3.44000e+01,
1.20000e-02,-5.04000e+00,3.28000e+01,
-3.20000e-02,5.12000e+00,3.44000e+01,
1.20000e-02,-5.04000e+00,3.28000e+01,
-3.20000e-02,5.12000e+00,3.44000e+01,
1.20000e-02,5.04000e+00,3.28000e+01,
-3.20000e-02,-5.04000e+00,3.44000e+01,
-3.20000e-02,-5.04000e+00,3.28000e+01,
1.20000e-02,5.12000e+00,3.44000e+01,
1.20000e-02,-5.04000e+00,3.28000e+01,
-3.20000e-02,5.12000e+00,3.44000e+01,
1.20000e-02,-5.04000e+00,3.28000e+01,
-3.20000e-02,5.12000e+00,3.44000e+01,
-3.20000e-02,5.12000e+00,3.28000e+01,
1.20000e-02,-5.04000e+00,3.44000e+01,
1.20000e-02,-5.04000e+00,3.28000e+01,
-3.20000e-02,5.12000e+00,3.44000e+01,
1.20000e-02,-5.04000e+00,3.28000e+01,
-3.20000e-02,5.12000e+00,3.44000e+01,
1.20000e-02,-5.04000e+00,3.28000e+01,
-3.20000e-02,5.12000e+00,3.44000e+01,
-2.80000e-02,5.12000e+00,3.28000e+01,
1.20000e-02,-5.04000e+00,3.44000e+01,
1.20000e-02,5.12000e+00,3.44000e+01,
-2.80000e-02,-5.04000e+00,3.28000e+01,
-2.80000e-02,5.12000e+00,3.28000e+01,
1.20000e-02,-5.04000e+00,3.44000e+01,
1.20000e-02,5.12000e+00,3.28000e+01,
-3.20000e-02,-5.04000e+00,3.44000e+01,
1.20000e-02,-5.04000e+00,3.28000e+01,
