NewFile6.csv

CH1,CH2,CH3,Start,Increment,
-4.00000e-02,-5.04000e+00,3.28000e+01,
-4.00000e-03,5.12000e+00,3.44000e+01,
-4.00000e-02,5.12000e+00,3.28000e+01,
-4.00000e-03,-5.04000e+00,3.44000e+01,
-4.20000e-02,-5.04000e+00,3.44000e+01,
-4.00000e-03,5.12000e+00,3.28000e+01,
-4.40000e-02,-5.04000e+00,3.28000e+01,
-2.00000e-03,5.12000e+00,3.44000e+01,
-4.00000e-03,-5.04000e+00,3.28000e+01,
-4.20000e-02,5.12000e+00,3.44000e+01,
-4.00000e-02,-5.04000e+00,3.28000e+01,
-4.00000e-03,5.12000e+00,3.44000e+01,
-2.00000e-03,-5.04000e+00,3.28000e+01,
-4.20000e-02,5.12000e+00,3.44000e+01,
-2.00000e-03,-5.04000e+00,3.28000e+01,
-4.20000e-02,5.12000e+00,3.44000e+01,
-4.00000e-02,-5.04000e+00,3.28000e+01,
-4.00000e-03,5.12000e+00,3.44000e+01,
-4.20000e-02,-5.04000e+00,3.28000e+01,
-2.00000e-03,5.12000e+00,3.44000e+01,
-2.00000e-03,-5.04000e+00,3.28000e+01,
-4.40000e-02,5.12000e+00,3.44000e+01,
-4.00000e-02,-5.04000e+00,3.28000e+01,
-2.00000e-03,5.20000e+00,3.44000e+01,
2.00000e-03,5.12000e+00,3.28000e+01,
-4.40000e-02,-5.04000e+00,3.44000e+01,
-2.00000e-03,-5.04000e+00,3.44000e+01,
-4.20000e-02,5.12000e+00,3.28000e+01,
-4.00000e-03,5.12000e+00,3.28000e+01,
-4.20000e-02,-5.04000e+00,3.44000e+01,
-4.40000e-02,5.12000e+00,3.28000e+01,
-6.00000e-03,-5.04000e+00,3.44000e+01,
0.00000e+00,-5.04000e+00,3.28000e+01,
-4.20000e-02,5.12000e+00,3.44000e+01,
-4.20000e-02,-5.04000e+00,3.28000e+01,
-2.00000e-03,5.12000e+00,3.44000e+01,
-2.00000e-03,5.12000e+00,3.28000e+01,
-4.20000e-02,-5.12000e+00,3.44000e+01,
2.00000e-03,-5.04000e+00,3.28000e+01,
-4.20000e-02,5.12000e+00,3.44000e+01,
0.00000e+00,-5.04000e+00,3.28000e+01,
-4.00000e-02,5.12000e+00,3.44000e+01,
-2.00000e-03,-5.04000e+00,3.28000e+01,
-4.20000e-02,5.12000e+00,3.44000e+01,
-4.20000e-02,-5.04000e+00,3.28000e+01,
-2.00000e-03,5.12000e+00,3.44000e+01,
-2.00000e-03,-5.04000e+00,3.28000e+01,
-4.00000e-02,5.12000e+00,3.44000e+01,
-4.20000e-02,-5.04000e+00,3.28000e+01,
4.00000e-03,5.12000e+00,3.44000e+01,
0.00000e+00,-5.04000e+00,3.28000e+01,
-4.00000e-02,5.20000e+00,3.44000e+01,
0.00000e+00,-5.04000e+00,3.28000e+01,
-4.20000e-02,5.12000e+00,3.44000e+01,
-2.00000e-03,5.12000e+00,3.28000e+01,
-4.20000e-02,-5.04000e+00,3.44000e+01,
-2.00000e-03,-5.04000e+00,3.44000e+01,
-4.20000e-02,5.12000e+00,3.28000e+01,
-4.00000e-03,5.12000e+00,3.28000e+01,
-4.40000e-02,-5.04000e+00,3.44000e+01,
-4.20000e-02,-5.04000e+00,3.28000e+01,
-4.00000e-03,5.12000e+00,3.44000e+01,
-2.00000e-03,-5.04000e+00,3.28000e+01,
-4.40000e-02,5.12000e+00,3.44000e+01,
-6.00000e-03,-5.04000e+00,3.28000e+01,
-4.60000e-02,5.12000e+00,3.44000e+01,
-4.00000e-03,5.12000e+00,3.28000e+01,
-4.40000e-02,-5.04000e+00,3.44000e+01,
-8.00000e-03,-5.04000e+00,3.44000e+01,
-4.80000e-02,5.12000e+00,3.28000e+01,
-5.00000e-02,-5.04000e+00,3.28000e+01,
-1.20000e-02,5.12000e+00,3.44000e+01,
-1.40000e-02,-5.04000e+00,3.28000e+01,
-5.40000e-02,5.12000e+00,3.44000e+01,
-5.60000e-02,-5.04000e+00,3.28000e+01,
-1.60000e-02,5.12000e+00,3.44000e+01,
-1.80000e-02,5.12000e+00,3.28000e+01,
-6.20000e-02,-5.04000e+00,3.44000e+01,
-2.20000e-02,-5.04000e+00,3.44000e+01,
-6.40000e-02,5.12000e+00,3.28000e+01,
-2.80000e-02,-5.04000e+00,3.28000e+01,
-7.00000e-02,5.12000e+00,3.44000e+01,
-3.40000e-02,-5.04000e+00,3.44000e+01,
-7.60000e-02,5.12000e+00,3.28000e+01,
-3.80000e-02,-5.04000e+00,3.28000e+01,
-8.20000e-02,5.12000e+00,3.44000e+01,
-4.00000e-02,-5.04000e+00,3.28000e+01,
-8.60000e-02,5.12000e+00,3.44000e+01,
-5.20000e-02,-5.04000e+00,3.28000e+01,
-9.40000e-02,5.12000e+00,3.44000e+01,
-6.00000e-02,-5.04000e+00,3.28000e+01,
-1.00000e-01,5.12000e+00,3.44000e+01,
-6.80000e-02,5.04000e+00,-8.00000e-01,
-1.06000e-01,-4.96000e+00,8.00000e-01,
-7.20000e-02,-4.96000e+00,3.28000e+01,
-1.08000e-01,4.96000e+00,3.44000e+01,
-7.40000e-02,4.96000e+00,3.44000e+01,
-1.12000e-01,-4.96000e+00,3.28000e+01,
-7.60000e-02,4.96000e+00,3.28000e+01,
-1.14000e-01,-4.96000e+00,3.44000e+01,
-7.60000e-02,4.96000e+00,3.44000e+01,
-1.18000e-01,-4.96000e+00,3.28000e+01,
-1.14000e-01,4.96000e+00,3.28000e+01,
-7.20000e-02,-4.96000e+00,3.44000e+01,
-1.14000e-01,-4.96000e+00,3.28000e+01,
-7.00000e-02,4.96000e+00,3.44000e+01,
-7.00000e-02,-4.96000e+00,3.28000e+01,
-1.14000e-01,5.04000e+00,3.44000e+01,
-7.60000e-02,-4.96000e+00,3.28000e+01,
-1.16000e-01,5.04000e+00,3.44000e+01,
-7.20000e-02,-4.96000e+00,3.28000e+01,
-1.16000e-01,5.04000e+00,3.44000e+01,
-7.20000e-02,-4.96000e+00,3.44000e+01,
-1.14000e-01,4.96000e+00,3.28000e+01,
-7.40000e-02,-4.96000e+00,3.28000e+01,
-1.12000e-01,4.96000e+00,3.44000e+01,
-7.20000e-02,-4.96000e+00,3.44000e+01,
-1.10000e-01,4.96000e+00,3.28000e+01,
-7.20000e-02,4.96000e+00,3.28000e+01,
-1.12000e-01,-4.96000e+00,3.44000e+01,
-1.12000e-01,4.96000e+00,3.28000e+01,
-7.00000e-02,-4.96000e+00,3.44000e+01,
-1.08000e-01,-4.96000e+00,3.28000e+01,
-6.80000e-02,4.96000e+00,3.44000e+01,
-6.80000e-02,-4.96000e+00,3.44000e+01,
-1.08000e-01,5.04000e+00,3.28000e+01,
-6.60000e-02,-4.96000e+00,3.44000e+01,
-1.08000e-01,4.96000e+00,3.28000e+01,
-1.06000e-01,-4.96000e+00,3.28000e+01,
-6.60000e-02,5.04000e+00,3.44000e+01,
-6.80000e-02,4.96000e+00,3.28000e+01,
-1.06000e-01,-4.96000e+00,3.44000e+01,
-6.40000e-02,-4.96000e+00,3.28000e+01,
-1.10000e-01,5.04000e+00,3.44000e+01,
-1.04000e-01,4.96000e+00,3.44000e+01,
-6.40000e-02,-4.96000e+00,3.28000e+01,
-1.02000e-01,4.96000e+00,3.28000e+01,
-6.20000e-02,-4.96000e+00,3.44000e+01,
-6.40000e-02,-4.96000e+00,3.44000e+01,
-1.04000e-01,5.04000e+00,3.28000e+01,
-1.02000e-01,-4.96000e+00,3.44000e+01,
-6.00000e-02,5.04000e+00,3.28000e+01,
-1.00000e-01,-5.04000e+00,3.44000e+01,
-5.80000e-02,5.04000e+00,3.28000e+01,
-1.02000e-01,4.96000e+00,3.28000e+01,
-6.00000e-02,-5.04000e+00,3.44000e+01,
-1.08000e-01,-4.96000e+00,3.44000e+01,
-6.00000e-02,5.04000e+00,3.28000e+01,
-6.20000e-02,-5.04000e+00,3.44000e+01,
-1.00000e-01,5.04000e+00,3.28000e+01,
-9.80000e-02,-4.96000e+00,3.28000e+01,
-6.00000e-02,4.96000e+00,3.44000e+01,
-6.00000e-02,4.96000e+00,3.28000e+01,
-1.00000e-01,-4.96000e+00,3.44000e+01,
-5.80000e-02,-4.96000e+00,3.28000e+01,
-9.80000e-02,5.04000e+00,3.44000e+01,
-1.00000e-01,-4.96000e+00,3.28000e+01,
-5.80000e-02,5.04000e+00,3.44000e+01,
-9.60000e-02,-4.96000e+00,3.28000e+01,
-5.80000e-02,5.04000e+00,3.44000e+01,
-5.80000e-02,-4.96000e+00,3.28000e+01,
-1.00000e-01,5.04000e+00,3.44000e+01,
-5.80000e-02,-4.96000e+00,3.28000e+01,
-9.80000e-02,4.96000e+00,3.44000e+01,
-9.60000e-02,-4.96000e+00,3.28000e+01,
-5.60000e-02,4.96000e+00,3.44000e+01,
-5.60000e-02,4.96000e+00,3.28000e+01,
-9.60000e-02,-4.96000e+00,3.44000e+01,
-9.40000e-02,4.96000e+00,3.28000e+01,
-5.60000e-02,-4.96000e+00,3.44000e+01,
-5.60000e-02,4.96000e+00,3.28000e+01,
-9.20000e-02,-4.96000e+00,3.44000e+01,
-5.40000e-02,-4.96000e+00,3.28000e+01,
-9.20000e-02,5.04000e+00,3.44000e+01,
-5.60000e-02,-4.96000e+00,3.28000e+01,
-9.20000e-02,4.96000e+00,3.44000e+01,
-9.00000e-02,4.96000e+00,3.28000e+01,
-5.40000e-02,-4.96000e+00,3.44000e+01,
-9.00000e-02,-4.96000e+00,3.28000e+01,
-5.60000e-02,4.96000e+00,3.44000e+01,
-5.40000e-02,-4.96000e+00,3.28000e+01,
-9.20000e-02,4.96000e+00,3.44000e+01,
-9.00000e-02,4.96000e+00,3.28000e+01,
-5.40000e-02,-4.96000e+00,3.44000e+01,
-9.00000e-02,4.96000e+00,3.44000e+01,
-5.40000e-02,-4.96000e+00,3.28000e+01,
-9.00000e-02,-4.96000e+00,3.28000e+01,
-5.00000e-02,4.96000e+00,3.44000e+01,
-9.00000e-02,-4.96000e+00,3.44000e+01,
-5.00000e-02,4.96000e+00,3.28000e+01,
-9.00000e-02,4.96000e+00,3.44000e+01,
-5.00000e-02,-4.96000e+00,3.28000e+01,
-8.60000e-02,4.96000e+00,3.28000e+01,
-5.20000e-02,-4.96000e+00,3.44000e+01,
-8.80000e-02,-4.96000e+00,3.44000e+01,
-4.80000e-02,4.96000e+00,3.28000e+01,
-4.60000e-02,-4.96000e+00,3.44000e+01,
-8.80000e-02,5.04000e+00,3.28000e+01,
-8.60000e-02,-4.96000e+00,3.28000e+01,
-4.60000e-02,4.96000e+00,3.44000e+01,
-4.60000e-02,4.96000e+00,3.28000e+01,
-8.60000e-02,-4.96000e+00,3.44000e+01,
-8.60000e-02,4.96000e+00,3.28000e+01,
-4.80000e-02,-4.96000e+00,3.44000e+01,
-8.60000e-02,-4.96000e+00,3.28000e+01,
-4.40000e-02,5.12000e+00,3.44000e+01,
-4.80000e-02,5.04000e+00,3.28000e+01,
-8.80000e-02,-5.04000e+00,3.44000e+01,
-8.60000e-02,-5.04000e+00,3.28000e+01,
-4.40000e-02,5.04000e+00,3.44000e+01,
-8.60000e-02,4.96000e+00,3.28000e+01,
-4.60000e-02,-5.04000e+00,3.44000e+01,
-4.80000e-02,-4.96000e+00,3.28000e+01,
-8.60000e-02,4.96000e+00,3.44000e+01,
-8.20000e-02,-4.96000e+00,3.28000e+01,
-4.40000e-02,4.96000e+00,3.44000e+01,
-4.40000e-02,-4.96000e+00,3.28000e+01,
-8.80000e-02,4.96000e+00,3.44000e+01,
-4.40000e-02,4.96000e+00,3.28000e+01,
-8.40000e-02,-4.96000e+00,3.44000e+01,
-4.20000e-02,-5.04000e+00,3.28000e+01,
-8.60000e-02,5.12000e+00,3.44000e+01,
-4.20000e-02,5.04000e+00,3.44000e+01,
-8.40000e-02,-5.04000e+00,3.28000e+01,
-4.20000e-02,-4.96000e+00,3.28000e+01,
-8.20000e-02,5.04000e+00,3.44000e+01,
-8.60000e-02,-5.04000e+00,3.28000e+01,
-4.40000e-02,5.12000e+00,3.44000e+01,
-4.20000e-02,-4.96000e+00,3.28000e+01,
-8.20000e-02,5.04000e+00,3.44000e+01,
-8.40000e-02,-4.96000e+00,3.28000e+01,
-4.00000e-02,5.04000e+00,3.44000e+01,
-8.00000e-02,-4.96000e+00,3.44000e+01,
-4.00000e-02,5.04000e+00,3.28000e+01,
-4.00000e-02,-4.96000e+00,3.28000e+01,
-8.00000e-02,5.04000e+00,3.44000e+01,
-7.80000e-02,5.12000e+00,3.28000e+01,
-4.00000e-02,-5.04000e+00,3.44000e+01,
-8.60000e-02,-4.96000e+00,3.28000e+01,
-4.00000e-02,5.04000e+00,3.44000e+01,
-4.00000e-02,-4.96000e+00,3.28000e+01,
-8.20000e-02,5.04000e+00,3.44000e+01,
-4.00000e-02,5.04000e+00,3.44000e+01,
-7.80000e-02,-5.04000e+00,3.28000e+01,
-7.80000e-02,-4.96000e+00,3.44000e+01,
-4.00000e-02,5.04000e+00,3.28000e+01,
-7.80000e-02,-4.96000e+00,3.28000e+01,
-3.60000e-02,5.04000e+00,3.44000e+01,
-7.80000e-02,-5.04000e+00,3.44000e+01,
-3.40000e-02,5.12000e+00,3.28000e+01,
-3.80000e-02,-4.96000e+00,3.28000e+01,
-7.80000e-02,5.12000e+00,3.44000e+01,
-3.80000e-02,5.04000e+00,3.44000e+01,
-7.80000e-02,-5.04000e+00,3.28000e+01,
-7.60000e-02,-5.04000e+00,3.28000e+01,
-3.80000e-02,5.04000e+00,3.44000e+01,
-7.60000e-02,-4.96000e+00,3.28000e+01,
-3.80000e-02,5.04000e+00,3.44000e+01,
-7.40000e-02,5.04000e+00,3.28000e+01,
-3.80000e-02,-4.96000e+00,3.44000e+01,
-3.80000e-02,-4.96000e+00,3.28000e+01,
-7.60000e-02,4.96000e+00,3.44000e+01,
-3.60000e-02,-4.96000e+00,3.28000e+01,
-7.60000e-02,4.96000e+00,3.44000e+01,
-3.40000e-02,-4.96000e+00,3.28000e+01,
-7.60000e-02,5.04000e+00,3.44000e+01,
-7.60000e-02,-4.96000e+00,3.28000e+01,
-3.20000e-02,4.96000e+00,3.44000e+01,
-7.20000e-02,-4.96000e+00,3.28000e+01,
-3.40000e-02,5.12000e+00,3.44000e+01,
-3.60000e-02,4.96000e+00,3.28000e+01,
-7.80000e-02,-4.96000e+00,3.44000e+01,
-7.20000e-02,4.96000e+00,3.28000e+01,
-3.20000e-02,-4.96000e+00,3.44000e+01,
-7.40000e-02,4.96000e+00,3.44000e+01,
-3.40000e-02,-4.96000e+00,3.28000e+01,
-7.20000e-02,-4.96000e+00,3.44000e+01,
-3.60000e-02,5.04000e+00,3.28000e+01,
-3.40000e-02,-4.96000e+00,3.28000e+01,
-7.60000e-02,5.04000e+00,3.44000e+01,
-3.40000e-02,-4.96000e+00,3.44000e+01,
-7.20000e-02,4.96000e+00,3.28000e+01,
-3.40000e-02,-4.96000e+00,3.44000e+01,
-7.40000e-02,5.04000e+00,3.28000e+01,
-3.60000e-02,4.96000e+00,3.28000e+01,
-7.40000e-02,-4.96000e+00,3.44000e+01,
-7.20000e-02,4.96000e+00,3.28000e+01,
-3.20000e-02,-4.96000e+00,3.44000e+01,
-3.20000e-02,-4.96000e+00,3.44000e+01,
-7.20000e-02,5.04000e+00,3.28000e+01,
-7.00000e-02,-4.96000e+00,3.28000e+01,
-3.20000e-02,5.04000e+00,3.44000e+01,
-7.00000e-02,-4.96000e+00,3.28000e+01,
-3.00000e-02,5.04000e+00,3.44000e+01,
-7.00000e-02,-4.96000e+00,3.28000e+01,
-3.00000e-02,5.12000e+00,3.44000e+01,
-3.20000e-02,-4.96000e+00,3.28000e+01,
-7.00000e-02,5.04000e+00,3.44000e+01,
-3.20000e-02,-4.96000e+00,3.28000e+01,
-7.20000e-02,5.04000e+00,3.44000e+01,
-3.20000e-02,-4.96000e+00,3.28000e+01,
-7.00000e-02,5.04000e+00,3.44000e+01,
-7.20000e-02,-4.96000e+00,3.28000e+01,
-3.20000e-02,5.04000e+00,3.44000e+01,
-2.80000e-02,-4.96000e+00,3.28000e+01,
-7.00000e-02,5.04000e+00,3.44000e+01,
-3.20000e-02,5.04000e+00,3.28000e+01,
-7.00000e-02,-5.04000e+00,3.44000e+01,
-6.80000e-02,-5.04000e+00,3.28000e+01,
-2.80000e-02,5.12000e+00,3.44000e+01,
-2.80000e-02,5.04000e+00,3.28000e+01,
-6.80000e-02,-5.04000e+00,3.44000e+01,
-2.80000e-02,-4.96000e+00,3.28000e+01,
-6.80000e-02,5.04000e+00,3.44000e+01,
-6.80000e-02,-4.96000e+00,3.28000e+01,
-3.00000e-02,5.04000e+00,3.44000e+01,
-3.00000e-02,-4.96000e+00,3.28000e+01,
-7.20000e-02,5.12000e+00,3.44000e+01,
-6.80000e-02,5.04000e+00,3.28000e+01,
-2.60000e-02,-5.04000e+00,3.44000e+01,
-3.00000e-02,-5.04000e+00,3.28000e+01,
-6.80000e-02,5.04000e+00,3.44000e+01,
-2.80000e-02,5.04000e+00,3.28000e+01,
-6.80000e-02,-5.04000e+00,3.44000e+01,
-2.40000e-02,5.12000e+00,3.28000e+01,
-7.00000e-02,-4.96000e+00,3.44000e+01,
-2.80000e-02,-5.04000e+00,3.28000e+01,
-6.60000e-02,5.12000e+00,3.44000e+01,
-6.80000e-02,-4.96000e+00,3.28000e+01,
-2.60000e-02,4.96000e+00,3.44000e+01,
-2.40000e-02,5.12000e+00,3.28000e+01,
-6.60000e-02,-5.04000e+00,3.44000e+01,
-2.80000e-02,-4.96000e+00,3.28000e+01,
-6.60000e-02,5.04000e+00,3.44000e+01,
-2.00000e-02,-4.96000e+00,3.28000e+01,
-6.60000e-02,5.12000e+00,3.44000e+01,
-2.20000e-02,-5.04000e+00,3.28000e+01,
-6.60000e-02,5.12000e+00,3.44000e+01,
-2.40000e-02,-5.04000e+00,3.28000e+01,
-6.60000e-02,5.04000e+00,3.44000e+01,
-2.40000e-02,5.04000e+00,3.28000e+01,
-6.40000e-02,-5.04000e+00,3.44000e+01,
-6.40000e-02,5.04000e+00,3.28000e+01,
-2.60000e-02,-5.04000e+00,3.44000e+01,
-2.20000e-02,-5.04000e+00,3.28000e+01,
-6.40000e-02,5.12000e+00,3.44000e+01,
-2.40000e-02,5.04000e+00,3.28000e+01,
-6.60000e-02,-5.04000e+00,3.44000e+01,
-6.40000e-02,5.12000e+00,3.28000e+01,
-2.20000e-02,-4.96000e+00,3.44000e+01,
-6.40000e-02,-4.96000e+00,3.28000e+01,
-2.20000e-02,5.04000e+00,3.44000e+01,
-2.20000e-02,-4.96000e+00,3.28000e+01,
-6.40000e-02,5.04000e+00,3.44000e+01,
-2.40000e-02,5.04000e+00,3.28000e+01,
-6.40000e-02,-5.04000e+00,3.44000e+01,
-2.20000e-02,5.04000e+00,3.28000e+01,
-6.40000e-02,-4.96000e+00,3.44000e+01,
-2.40000e-02,-4.96000e+00,3.28000e+01,
-6.40000e-02,5.04000e+00,3.44000e+01,
-6.20000e-02,-4.96000e+00,3.28000e+01,
-2.20000e-02,5.04000e+00,3.44000e+01,
-6.00000e-02,-5.04000e+00,3.44000e+01,
-2.00000e-02,5.12000e+00,3.28000e+01,
-2.20000e-02,5.04000e+00,3.44000e+01,
-6.40000e-02,-4.96000e+00,3.28000e+01,
-2.40000e-02,-4.96000e+00,3.28000e+01,
-6.20000e-02,5.04000e+00,3.44000e+01,
-6.20000e-02,-4.96000e+00,3.28000e+01,
-2.40000e-02,5.04000e+00,3.44000e+01,
-6.20000e-02,-4.96000e+00,3.28000e+01,
-2.20000e-02,5.04000e+00,3.44000e+01,
-6.20000e-02,-4.96000e+00,3.28000e+01,
-2.20000e-02,5.12000e+00,3.44000e+01,
-6.20000e-02,5.04000e+00,3.28000e+01,
-2.20000e-02,-5.04000e+00,3.44000e+01,
-2.40000e-02,-4.96000e+00,3.44000e+01,
-6.20000e-02,5.04000e+00,3.28000e+01,
-2.20000e-02,5.12000e+00,3.44000e+01,
-6.20000e-02,-5.04000e+00,3.28000e+01,
-2.00000e-02,-4.96000e+00,3.28000e+01,
-6.20000e-02,5.12000e+00,3.44000e+01,
-6.00000e-02,-4.96000e+00,3.28000e+01,
-2.40000e-02,5.12000e+00,3.44000e+01,
-6.00000e-02,5.12000e+00,3.28000e+01,
-2.20000e-02,-4.96000e+00,3.44000e+01,
-2.20000e-02,5.04000e+00,3.28000e+01,
-6.00000e-02,-5.04000e+00,3.44000e+01,
-2.20000e-02,-4.96000e+00,3.28000e+01,
-6.00000e-02,5.12000e+00,3.44000e+01,
-2.20000e-02,-4.96000e+00,3.44000e+01,
-6.20000e-02,5.12000e+00,3.28000e+01,
-2.20000e-02,5.04000e+00,3.28000e+01,
-6.20000e-02,-5.04000e+00,3.44000e+01,
-2.20000e-02,-5.04000e+00,3.44000e+01,
-6.00000e-02,5.12000e+00,3.28000e+01,
-2.40000e-02,-4.96000e+00,3.28000e+01,
-6.00000e-02,5.12000e+00,3.44000e+01,
-2.00000e-02,5.04000e+00,3.28000e+01,
-6.00000e-02,-5.04000e+00,3.44000e+01,
-6.00000e-02,-4.96000e+00,3.28000e+01,
-1.80000e-02,5.12000e+00,3.44000e+01,
-6.20000e-02,-4.96000e+00,3.28000e+01,
-2.00000e-02,5.04000e+00,3.44000e+01,
-6.20000e-02,-5.04000e+00,3.28000e+01,
-2.00000e-02,5.12000e+00,3.44000e+01,
-1.20000e-02,-5.04000e+00,3.28000e+01,
-6.20000e-02,5.12000e+00,3.44000e+01,
-1.80000e-02,5.12000e+00,3.28000e+01,
-5.80000e-02,-5.04000e+00,3.44000e+01,
-1.80000e-02,5.12000e+00,3.28000e+01,
-6.00000e-02,-5.04000e+00,3.44000e+01,
-2.00000e-02,5.04000e+00,3.28000e+01,
-6.00000e-02,-5.04000e+00,3.44000e+01,
-5.60000e-02,5.12000e+00,3.28000e+01,
-2.00000e-02,-5.04000e+00,3.44000e+01,
-5.80000e-02,-4.96000e+00,3.44000e+01,
-1.80000e-02,5.12000e+00,3.28000e+01,
-2.00000e-02,5.12000e+00,3.28000e+01,
-6.20000e-02,-5.04000e+00,3.44000e+01,
-5.80000e-02,5.12000e+00,3.28000e+01,
-1.40000e-02,-5.04000e+00,3.44000e+01,
-5.80000e-02,5.12000e+00,3.44000e+01,
-1.80000e-02,-5.04000e+00,3.28000e+01,
-2.00000e-02,-4.96000e+00,3.28000e+01,
-6.00000e-02,5.12000e+00,3.44000e+01,
-6.00000e-02,-5.04000e+00,3.28000e+01,
-2.00000e-02,5.12000e+00,3.44000e+01,
-5.80000e-02,5.12000e+00,3.28000e+01,
-1.80000e-02,-5.04000e+00,3.44000e+01,
-1.80000e-02,5.12000e+00,3.28000e+01,
-6.20000e-02,-5.04000e+00,3.44000e+01,
-2.00000e-02,5.12000e+00,3.28000e+01,
-6.00000e-02,-5.04000e+00,3.44000e+01,
-6.00000e-02,5.12000e+00,3.28000e+01,
-1.80000e-02,-5.04000e+00,3.44000e+01,
-5.60000e-02,5.12000e+00,3.28000e+01,
-1.40000e-02,-5.04000e+00,3.44000e+01,
-1.60000e-02,-5.04000e+00,3.28000e+01,
-6.00000e-02,5.12000e+00,3.44000e+01,
-5.60000e-02,-4.96000e+00,3.28000e+01,
-1.80000e-02,5.12000e+00,3.44000e+01,
-6.00000e-02,-5.04000e+00,3.28000e+01,
-1.60000e-02,5.12000e+00,3.44000e+01,
-5.80000e-02,5.12000e+00,3.28000e+01,
-1.80000e-02,-5.04000e+00,3.44000e+01,
-1.60000e-02,-5.04000e+00,3.28000e+01,
-5.60000e-02,5.12000e+00,3.44000e+01,
-1.60000e-02,-4.96000e+00,3.28000e+01,
-5.60000e-02,5.12000e+00,3.44000e+01,
-5.40000e-02,-5.04000e+00,3.28000e+01,
-1.40000e-02,5.12000e+00,3.44000e+01,
-5.60000e-02,5.12000e+00,3.28000e+01,
-1.60000e-02,-5.04000e+00,3.44000e+01,
-5.60000e-02,5.12000e+00,3.44000e+01,
-1.60000e-02,-5.04000e+00,3.28000e+01,
-5.60000e-02,5.12000e+00,3.28000e+01,
-1.60000e-02,-5.04000e+00,3.44000e+01,
-1.40000e-02,-5.04000e+00,3.28000e+01,
-5.40000e-02,5.12000e+00,3.44000e+01,
-1.80000e-02,-5.04000e+00,3.28000e+01,
-5.40000e-02,5.12000e+00,3.44000e+01,
-5.40000e-02,-4.96000e+00,3.28000e+01,
-1.20000e-02,5.12000e+00,3.44000e+01,
-1.40000e-02,5.12000e+00,3.28000e+01,
-5.60000e-02,-5.04000e+00,3.44000e+01,
-1.40000e-02,-5.04000e+00,3.44000e+01,
-5.80000e-02,5.12000e+00,3.28000e+01,
-5.20000e-02,-4.96000e+00,3.28000e+01,
-1.60000e-02,5.12000e+00,3.44000e+01,
-5.20000e-02,5.12000e+00,3.28000e+01,
-1.60000e-02,-5.04000e+00,3.44000e+01,
-5.20000e-02,-4.96000e+00,3.28000e+01,
-1.60000e-02,5.12000e+00,3.44000e+01,
-5.60000e-02,5.12000e+00,3.28000e+01,
-1.40000e-02,-5.04000e+00,3.44000e+01,
-5.40000e-02,5.12000e+00,3.28000e+01,
-1.40000e-02,-5.04000e+00,3.44000e+01,
-1.40000e-02,5.12000e+00,3.28000e+01,
-5.40000e-02,-5.04000e+00,3.44000e+01,
-5.60000e-02,-5.04000e+00,3.28000e+01,
-1.40000e-02,5.12000e+00,3.44000e+01,
-8.00000e-03,-4.96000e+00,3.28000e+01,
-5.40000e-02,5.12000e+00,3.44000e+01,
-5.20000e-02,5.12000e+00,3.28000e+01,
-1.20000e-02,-5.04000e+00,3.44000e+01,
-1.20000e-02,5.12000e+00,3.44000e+01,
-5.20000e-02,-5.04000e+00,3.28000e+01,
-5.40000e-02,-5.04000e+00,3.28000e+01,
-1.40000e-02,5.12000e+00,3.44000e+01,
-5.60000e-02,-5.04000e+00,3.28000e+01,
-1.40000e-02,5.12000e+00,3.44000e+01,
-5.20000e-02,-5.04000e+00,3.28000e+01,
-1.40000e-02,5.12000e+00,3.44000e+01,
-1.40000e-02,5.12000e+00,3.28000e+01,
-5.20000e-02,-5.04000e+00,3.44000e+01,
-5.40000e-02,-4.96000e+00,3.44000e+01,
-1.40000e-02,5.12000e+00,3.28000e+01,
-5.40000e-02,5.12000e+00,3.28000e+01,
-1.40000e-02,-5.04000e+00,3.44000e+01,
-5.20000e-02,5.12000e+00,3.28000e+01,
-1.40000e-02,-5.04000e+00,3.44000e+01,
-1.40000e-02,-5.04000e+00,3.28000e+01,
-5.40000e-02,5.12000e+00,3.44000e+01,
-5.20000e-02,-5.04000e+00,3.28000e+01,
-1.40000e-02,5.12000e+00,3.44000e+01,
-1.40000e-02,5.12000e+00,3.28000e+01,
-5.20000e-02,-5.04000e+00,3.44000e+01,
-5.20000e-02,-5.04000e+00,3.28000e+01,
-1.40000e-02,5.12000e+00,3.44000e+01,
-5.40000e-02,-5.04000e+00,3.28000e+01,
-1.40000e-02,5.12000e+00,3.44000e+01,
-5.20000e-02,-5.04000e+00,3.28000e+01,
-1.20000e-02,5.12000e+00,3.44000e+01,
-1.20000e-02,5.12000e+00,3.28000e+01,
-5.20000e-02,-5.04000e+00,3.44000e+01,
-5.20000e-02,-4.96000e+00,3.28000e+01,
-1.20000e-02,5.12000e+00,3.44000e+01,
